fulcrum_id,fulcrum_parent_id,fulcrum_record_id,version,latitude,longitude,geometry,created_at,updated_at,created_by,updated_by,heat_pump_outdoor_label,heat_pump_outdoor_model,heat_pump_outdoor_nameplate_photo,heat_pump_outdoor_nameplate_photo_caption,heat_pump_outdoor_nameplate_photo_url,cellular_node_channel_label_power,wattnode_voltage,ct_size_power,ct_size_power_other,cellular_node_channel_label_temperature
28c9a58b-0293-4afb-9944-50cff6e716ae,23753171-54e4-438d-9094-2464ad11f8d4,7fbc436c-3a4d-4679-8639-1e0a9901ca4f,27,44.86392602129316,-68.848637524698,POINT (-68.848637524698 44.86392602129316),2021-07-21 12:44:23 UTC,2021-09-03 01:44:35 UTC,ajackson@ridgelineanalytics.com,ajackson@ridgelineanalytics.com,1,MUZ-FH09NA,152509c1-09a7-4199-97e4-2bcaec79f73e,,https://web.fulcrumapp.com/photos/view?photos=152509c1-09a7-4199-97e4-2bcaec79f73e,P3,240,20,,T1
c0a427c3-efe5-44cf-99b7-2f79597d8088,23753171-54e4-438d-9094-2464ad11f8d4,7fbc436c-3a4d-4679-8639-1e0a9901ca4f,27,44.86395355726423,-68.84864732860338,POINT (-68.84864732860338 44.86395355726423),2021-07-21 12:45:57 UTC,2021-08-30 17:32:23 UTC,ajackson@ridgelineanalytics.com,ajackson@ridgelineanalytics.com,2,MUZ-FH18NA2,4186dfa6-b308-4c44-8272-6bface5d3d9d,,https://web.fulcrumapp.com/photos/view?photos=4186dfa6-b308-4c44-8272-6bface5d3d9d,P4,240,20,,T1
5789669e-b96f-403c-8ecc-1b97b167c27a,9b59006b-9d24-43f9-b355-6d254555b180,7fbc436c-3a4d-4679-8639-1e0a9901ca4f,27,44.86393812171059,-68.84866458805095,POINT (-68.84866458805095 44.86393812171059),2021-07-21 12:53:16 UTC,2022-01-07 20:51:08 UTC,ajackson@ridgelineanalytics.com,ajackson@ridgelineanalytics.com,3,MUZ-FH18NA2,8f310257-6684-442e-a19b-c49b0336eca4,,https://web.fulcrumapp.com/photos/view?photos=8f310257-6684-442e-a19b-c49b0336eca4,P1,240,20,,T1
0c11e5ff-b35c-45be-b483-1019b1550d3c,1e97fc14-fde3-4814-924e-37e9b4809759,4ea33a93-975c-46ac-a3a7-6b0cfdd91af9,19,44.83541792984879,-69.22641862704425,POINT (-69.22641862704425 44.83541792984879),2021-07-21 16:49:33 UTC,2021-08-30 17:33:18 UTC,ajackson@ridgelineanalytics.com,ajackson@ridgelineanalytics.com,1,AOU15RLS3H,d6c99454-4d3c-464d-aac7-8cdbf2247d19,,https://web.fulcrumapp.com/photos/view?photos=d6c99454-4d3c-464d-aac7-8cdbf2247d19,P3,240,20,,T1
388b8bd9-46d5-4f71-8154-7edf183e9bc1,0d60e30d-0d34-4c40-a47a-f4bbf25f4a7a,4ea33a93-975c-46ac-a3a7-6b0cfdd91af9,19,44.83538191918022,-69.22641302874432,POINT (-69.22641302874432 44.83538191918022),2021-07-21 17:04:27 UTC,2021-08-03 18:32:36 UTC,ajackson@ridgelineanalytics.com,ajackson@ridgelineanalytics.com,2,RXL15QMVJUA,42fc4db7-7fe8-4124-9d97-3789cd204ed7,,https://web.fulcrumapp.com/photos/view?photos=42fc4db7-7fe8-4124-9d97-3789cd204ed7,P3,240,20,,T1
29446e15-4474-4807-8774-480dedb15375,8ba119bf-740c-4356-9519-e92489bbcc94,72e1a710-2c21-462c-aea8-93f38fdb54da,17,44.896526540916184,-68.95426539137794,POINT (-68.95426539137794 44.896526540916184),2021-07-21 19:06:56 UTC,2021-08-30 17:33:34 UTC,ajackson@ridgelineanalytics.com,ajackson@ridgelineanalytics.com,1,AOU15RLS3,10148292-0260-4d16-ab4d-7c8bb4b3ab21,,https://web.fulcrumapp.com/photos/view?photos=10148292-0260-4d16-ab4d-7c8bb4b3ab21,P2,240,20,,T1
9e69ac4e-59c2-42bc-bd47-404234b34bb0,0523cb8c-2ce2-4c94-9672-712a7b8c6344,72e1a710-2c21-462c-aea8-93f38fdb54da,17,44.89647788038193,-68.95391204242638,POINT (-68.95391204242638 44.89647788038193),2021-07-21 20:01:52 UTC,2021-08-30 17:33:43 UTC,ajackson@ridgelineanalytics.com,ajackson@ridgelineanalytics.com,2,MUZ-FH15NA,c86fae59-5027-4ef5-b0f9-1cdb7de3a20a,,https://web.fulcrumapp.com/photos/view?photos=c86fae59-5027-4ef5-b0f9-1cdb7de3a20a,P2,240,20,,T1
e2c7e64f-97e7-4c8f-a479-1fe55946e56b,e2485396-877d-4b01-86c3-b00528ba319c,98f5bffd-41b2-4217-a5ed-420e730577b9,19,44.43539564130628,-68.31282835342408,POINT (-68.31282835342408 44.43539564130628),2021-07-22 13:31:44 UTC,2021-08-30 17:34:09 UTC,ajackson@ridgelineanalytics.com,ajackson@ridgelineanalytics.com,1,AOUG15LZAS1,524186ea-b84a-4c80-b253-6523fe5a3349,,https://web.fulcrumapp.com/photos/view?photos=524186ea-b84a-4c80-b253-6523fe5a3349,P4,240,20,,T1
e7e22af0-07cb-4ba8-9f11-b77ae1ec040b,e2485396-877d-4b01-86c3-b00528ba319c,98f5bffd-41b2-4217-a5ed-420e730577b9,19,44.4353248877867,-68.31286355859443,POINT (-68.31286355859443 44.4353248877867),2021-07-22 14:06:18 UTC,2021-08-30 17:34:12 UTC,ajackson@ridgelineanalytics.com,ajackson@ridgelineanalytics.com,2,AOUG09LZAS1,dc363292-86a6-4d2a-9d3a-9506b8ba8bac,,https://web.fulcrumapp.com/photos/view?photos=dc363292-86a6-4d2a-9d3a-9506b8ba8bac,P3,240,20,,T1
32effba1-9883-4ed5-88bc-1fde81f5a8cc,510849a3-d892-459e-8be2-b6217746309b,79afb30f-bb3f-4c4a-b991-ed6a04e8dd2f,23,44.987640937381435,-69.28030244757473,POINT (-69.28030244757473 44.987640937381435),2021-07-22 17:11:10 UTC,2021-08-03 18:34:57 UTC,ajackson@ridgelineanalytics.com,ajackson@ridgelineanalytics.com,1,AOUG15LZAS1,30a468b8-306e-422f-8e9c-87ca505fd735,,https://web.fulcrumapp.com/photos/view?photos=30a468b8-306e-422f-8e9c-87ca505fd735,P2,240,20,,T1
17ef447f-0ca0-4ca5-b0e2-4f41dfa240ea,66083a51-3734-4b40-9e58-0c583f082294,0691898b-7d54-43c8-a89c-9c5165f816d6,27,44.415292477206755,-68.39758935890985,POINT (-68.39758935890985 44.415292477206755),2021-07-27 15:25:59 UTC,2021-10-21 19:10:21 UTC,ajackson@ridgelineanalytics.com,ajackson@ridgelineanalytics.com,1,AOUG15LZAS1,738a125d-1523-4e8e-8a36-afa49b3b3843,,https://web.fulcrumapp.com/photos/view?photos=738a125d-1523-4e8e-8a36-afa49b3b3843,P2,240,20,,T1
4cd239d9-dc79-4577-a6d7-dd1e081befac,bebcd448-7fd3-4437-9514-703ab82d2831,f4b6f980-edd1-4af4-a333-7656f3dd21b9,30,44.67721839299482,-68.2282306401594,POINT (-68.2282306401594 44.67721839299482),2021-07-27 16:37:46 UTC,2021-08-03 18:41:34 UTC,ajackson@ridgelineanalytics.com,ajackson@ridgelineanalytics.com,1,3MXL24RMVJU,da56d2d0-3619-44bb-82ad-e3937f156e44,,https://web.fulcrumapp.com/photos/view?photos=da56d2d0-3619-44bb-82ad-e3937f156e44,P3,240,20,,T1
ced14b8d-be7d-406e-be78-43af36a8c133,0252e1ad-36a8-4c9d-a542-3a5c7183b8a6,f4b6f980-edd1-4af4-a333-7656f3dd21b9,8,44.6772124998643,-68.22829033791433,POINT (-68.22829033791433 44.6772124998643),2021-10-28 17:21:56 UTC,2021-10-28 17:23:12 UTC,cbohl@ridgelineanalytics.com,ajackson@ridgelineanalytics.com,1,3MXL24RMVJU,7f084168-cfbb-4e74-bbba-150fb4b049df,,https://web.fulcrumapp.com/photos/view?photos=7f084168-cfbb-4e74-bbba-150fb4b049df,P3,240,20,,T1
1d0c009d-c077-4d87-9002-6adefe2827f6,a47e00f3-df55-477b-af7d-3efd27bb5bd1,ea820027-46dc-429f-a9f8-0401a190104a,20,44.70574772006721,-68.49217611620415,POINT (-68.49217611620415 44.70574772006721),2021-07-28 12:41:54 UTC,2021-08-03 18:42:02 UTC,ajackson@ridgelineanalytics.com,ajackson@ridgelineanalytics.com,1,AOUG15LZAH1,9f91096d-c493-4486-8ae9-8d9bd9df19d7,,https://web.fulcrumapp.com/photos/view?photos=9f91096d-c493-4486-8ae9-8d9bd9df19d7,P2,240,20,,T1
06ed46a8-3fd6-4be1-b4f3-f76083d3bd55,58599475-f629-46b2-a1d7-52757f2c63bb,70b97ea9-b35f-4856-a3b5-e2092392f4aa,24,44.68430447501389,-68.45737617971443,POINT (-68.45737617971443 44.68430447501389),2021-07-28 14:14:05 UTC,2021-08-03 18:42:26 UTC,ajackson@ridgelineanalytics.com,ajackson@ridgelineanalytics.com,1,AOUG15LZAH1,04c67f8d-00c2-4edf-a058-361132f001f8,,https://web.fulcrumapp.com/photos/view?photos=04c67f8d-00c2-4edf-a058-361132f001f8,P2,240,20,,T1
ce7dcf6e-7528-4d14-b095-bf7a6d4f184a,68c11b89-d4f3-4ef2-b6d4-d7c43f12f0a4,6e31230e-d97d-4221-95d8-e49acfa25645,17,44.29364007270831,-68.32276181046728,POINT (-68.32276181046728 44.29364007270831),2021-07-28 17:14:39 UTC,2021-08-03 18:42:58 UTC,ajackson@ridgelineanalytics.com,ajackson@ridgelineanalytics.com,1,MUZ-FH06NA,3064afdb-a232-4765-9146-cd703131a1ba,,https://web.fulcrumapp.com/photos/view?photos=3064afdb-a232-4765-9146-cd703131a1ba,P2,240,20,,T1
63b69f2d-2e17-43a3-b465-a07db2759dd2,68c11b89-d4f3-4ef2-b6d4-d7c43f12f0a4,6e31230e-d97d-4221-95d8-e49acfa25645,17,44.29363083051918,-68.3227587743273,POINT (-68.3227587743273 44.29363083051918),2021-07-28 17:16:10 UTC,2021-08-03 18:43:02 UTC,ajackson@ridgelineanalytics.com,ajackson@ridgelineanalytics.com,2,MUZ-FH06NA,5dc5d97d-9dcd-46d3-b2e0-95f89a3f10a8,,https://web.fulcrumapp.com/photos/view?photos=5dc5d97d-9dcd-46d3-b2e0-95f89a3f10a8,P4,240,20,,T1
67b92833-9122-4a8c-8045-24928726d992,e6c31279-483c-43a1-bd88-1e9d89f9b644,6e31230e-d97d-4221-95d8-e49acfa25645,17,44.29353913454477,-68.32298220898437,POINT (-68.32298220898437 44.29353913454477),2021-07-28 18:29:29 UTC,2021-08-03 18:43:44 UTC,ajackson@ridgelineanalytics.com,ajackson@ridgelineanalytics.com,3,MUZ-FH18NA2,2e73120b-917b-4f4f-83ce-3c0642ddbdc0,,https://web.fulcrumapp.com/photos/view?photos=2e73120b-917b-4f4f-83ce-3c0642ddbdc0,P2,240,20,,T1
ed4f5aa4-6fba-4a8f-b4f4-d4e4e9570680,379696d7-2477-419f-99cb-5f4384caa9e1,0157f5d5-3ec6-40c2-ba6f-a8860fd67070,17,44.40273349970105,-67.97677051774986,POINT (-67.97677051774986 44.40273349970105),2021-07-29 14:13:54 UTC,2021-08-03 18:44:55 UTC,ajackson@ridgelineanalytics.com,ajackson@ridgelineanalytics.com,1,AOUG15LZAS1,02eba932-4aae-46ed-8792-3a81cf3162ac,,https://web.fulcrumapp.com/photos/view?photos=02eba932-4aae-46ed-8792-3a81cf3162ac,P2,240,20,,T1
78ff3b04-9316-48b7-9101-88fb0da0b991,93fd08ae-530b-49c3-bcaf-011915471377,0157f5d5-3ec6-40c2-ba6f-a8860fd67070,17,44.40292654956826,-67.97683008597902,POINT (-67.97683008597902 44.40292654956826),2021-07-29 14:27:38 UTC,2021-08-03 18:45:04 UTC,ajackson@ridgelineanalytics.com,ajackson@ridgelineanalytics.com,2,AOUG12LZAS1,9f245352-96ad-4604-b37e-0b70deead64b,,https://web.fulcrumapp.com/photos/view?photos=9f245352-96ad-4604-b37e-0b70deead64b,P2,240,20,,T1
26a935a6-fd81-476c-a810-52ba90e55166,49462922-0d15-4894-a0a8-fd82982a7c90,0157f5d5-3ec6-40c2-ba6f-a8860fd67070,17,44.402689841272704,-67.97732471030686,POINT (-67.97732471030686 44.402689841272704),2021-07-29 14:44:30 UTC,2021-08-03 18:45:15 UTC,ajackson@ridgelineanalytics.com,ajackson@ridgelineanalytics.com,3,AOUG15LZAS1,53196c4c-1795-48f9-a969-07c0af6ea015,,https://web.fulcrumapp.com/photos/view?photos=53196c4c-1795-48f9-a969-07c0af6ea015,P1,240,20,,T1
0b5db92c-6acc-4f7c-981b-a0beda789843,0c8af941-329a-424b-94b0-21a9da891f6c,6542f260-fd79-428e-8b70-70e1fd93ea10,19,44.845330165741125,-68.72264374053918,POINT (-68.72264374053918 44.845330165741125),2021-07-29 19:17:20 UTC,2021-08-03 18:45:51 UTC,ajackson@ridgelineanalytics.com,ajackson@ridgelineanalytics.com,1,NAXSPH15B112AA,919d60d4-1fb9-49c6-a9b4-ec004cdb7e8d,,https://web.fulcrumapp.com/photos/view?photos=919d60d4-1fb9-49c6-a9b4-ec004cdb7e8d,P4,240,20,,T1
4246c90e-dd30-40a0-bb1f-390525506138,0c8af941-329a-424b-94b0-21a9da891f6c,6542f260-fd79-428e-8b70-70e1fd93ea10,19,44.845333540041,-68.72262683630878,POINT (-68.72262683630878 44.845333540041),2021-07-29 19:43:40 UTC,2021-08-03 18:45:54 UTC,ajackson@ridgelineanalytics.com,ajackson@ridgelineanalytics.com,2,NAXSPH09B112AA,d505199a-9810-42ba-a157-76ea2d0f7c39,,https://web.fulcrumapp.com/photos/view?photos=d505199a-9810-42ba-a157-76ea2d0f7c39,P3,240,20,,T1
47b43891-9b22-495a-b645-6807816f5d36,3a80d954-a809-44d0-a6df-3e5ac60de548,76ba2810-2a26-4074-be35-5abf2ff6ccd8,28,44.83752176340797,-68.71780404814665,POINT (-68.71780404814665 44.83752176340797),2021-07-29 21:05:50 UTC,2021-08-03 18:35:46 UTC,ajackson@ridgelineanalytics.com,ajackson@ridgelineanalytics.com,1,AOUG15LZAH1,80f54b8d-1aaa-443e-9442-09d2a2f6fe35,,https://web.fulcrumapp.com/photos/view?photos=80f54b8d-1aaa-443e-9442-09d2a2f6fe35,P2,240,20,,T1
9e094386-ca45-4563-876c-0e18e1c38163,73f84c5f-814a-42de-ab65-e39f54cd40c1,76ba2810-2a26-4074-be35-5abf2ff6ccd8,10,44.83751943170722,-68.71789373415959,POINT (-68.71789373415959 44.83751943170722),2022-01-06 15:32:26 UTC,2022-01-06 15:58:13 UTC,cbohl@ridgelineanalytics.com,ajackson@ridgelineanalytics.com,1,a,8313e959-f227-47dc-a13c-1d20f7af8524,,https://web.fulcrumapp.com/photos/view?photos=8313e959-f227-47dc-a13c-1d20f7af8524,P3,240,20,,T1
bc48f4c9-570f-4e72-a06f-ae4aa0b05291,eaf19f02-07dd-46c8-aff8-4ad43b33f64a,812b00d9-a294-4b14-8b4f-445d045471c6,26,44.79651845698481,-68.79363130210186,POINT (-68.79363130210186 44.79651845698481),2021-07-30 13:34:27 UTC,2021-08-03 18:46:28 UTC,ajackson@ridgelineanalytics.com,ajackson@ridgelineanalytics.com,1,3MXL24RMVJUA,9802d5ae-7c01-40b8-83e1-a4d4ee806e59,,https://web.fulcrumapp.com/photos/view?photos=9802d5ae-7c01-40b8-83e1-a4d4ee806e59,P4,240,20,,T1
6ae22bee-a473-4613-a957-73dae48d046d,f6322b1f-c8bc-4446-8c2a-0aebf07ac778,812b00d9-a294-4b14-8b4f-445d045471c6,2,44.79643790713183,-68.79374744448172,POINT (-68.79374744448172 44.79643790713183),2022-02-10 15:08:28 UTC,2022-02-15 19:37:48 UTC,wrambur@ridgelineanalytics.com,ajackson@ridgelineanalytics.com,1,3MXL24RMVJUA,7fa09c6d-7dbd-4158-b43d-b55c50b6fc2e,,https://web.fulcrumapp.com/photos/view?photos=7fa09c6d-7dbd-4158-b43d-b55c50b6fc2e,P4,240,20,,T1
4c0101c5-1f2d-469c-aa4a-046604ba1ca8,13c5500f-3f8c-4a38-a678-fecb569af2fe,4c5bccb2-bef1-4076-8833-d8a78759cdd9,24,44.50274234497174,-68.41897034857223,POINT (-68.41897034857223 44.50274234497174),2021-07-30 18:31:27 UTC,2021-09-20 19:32:00 UTC,ajackson@ridgelineanalytics.com,ajackson@ridgelineanalytics.com,1,AOUG15LZAS1,165f066e-7dac-479c-a9a4-c42451deb083,,https://web.fulcrumapp.com/photos/view?photos=165f066e-7dac-479c-a9a4-c42451deb083,P4,240,20,,T1
cef77a76-d5f3-42b5-b4a8-03b56a0ebffa,13c5500f-3f8c-4a38-a678-fecb569af2fe,4c5bccb2-bef1-4076-8833-d8a78759cdd9,24,44.5027724855746,-68.41897251972938,POINT (-68.41897251972938 44.5027724855746),2021-07-30 18:32:00 UTC,2021-08-03 18:46:51 UTC,ajackson@ridgelineanalytics.com,ajackson@ridgelineanalytics.com,2,AOUG09LZAS1,6c293a2c-d81f-4f11-8626-ae6e2446b267,,https://web.fulcrumapp.com/photos/view?photos=6c293a2c-d81f-4f11-8626-ae6e2446b267,P2,240,20,,T1
508500b3-b406-49ba-8c8b-9f2d1645999b,9c4898e8-e57c-47de-93cd-113ecc6f8a84,a4de934a-fc15-4ffa-87d1-530227278759,25,43.903266696997,-69.98922274721919,POINT (-69.98922274721919 43.903266696997),2021-08-05 16:09:19 UTC,2021-08-05 17:02:21 UTC,cbohl@ridgelineanalytics.com,ajackson@ridgelineanalytics.com,1,MUZ-FS12NA,9577d674-d71f-4862-96e5-40787b1bac60,,https://web.fulcrumapp.com/photos/view?photos=9577d674-d71f-4862-96e5-40787b1bac60,P2,240,20,,T1
798eb77b-5408-42de-94b4-3128e595eeda,38e36cdd-0de5-47dc-af14-f701e5ad5712,9a430f5f-bb6d-4deb-a360-1d24c43bd5a1,30,44.22912060553588,-69.76338729673711,POINT (-69.76338729673711 44.22912060553588),2021-08-11 13:53:00 UTC,2021-08-11 13:58:40 UTC,tschanzlin@ridgelineanalytics.com,ajackson@ridgelineanalytics.com,1,Muzfh18na2,"36d58095-47c4-4121-aea0-d16d6e035dc9,2d0c25b2-027c-41ef-9396-65e91013039f,9ca9314a-53d2-4160-9971-33568d775962",",,",https://web.fulcrumapp.com/photos/view?photos=36d58095-47c4-4121-aea0-d16d6e035dc9%2C2d0c25b2-027c-41ef-9396-65e91013039f%2C9ca9314a-53d2-4160-9971-33568d775962,P1,240,20,,T3
2fb9c8d9-3085-41e5-a4b5-5a142081414d,5f2aaca2-66fa-4a90-baf6-46482e784d0c,9a430f5f-bb6d-4deb-a360-1d24c43bd5a1,30,44.229222546770714,-69.76360385455641,POINT (-69.76360385455641 44.229222546770714),2021-08-11 14:01:37 UTC,2021-08-11 14:03:17 UTC,tschanzlin@ridgelineanalytics.com,ajackson@ridgelineanalytics.com,2,MuZ-FH15NA,"873b99ea-1400-4dc3-8328-27776928e27b,d417f702-d254-4e47-8a20-d1c48a0e8005,27ed1274-0f8e-4785-abca-92f1f7c207f3",",,",https://web.fulcrumapp.com/photos/view?photos=873b99ea-1400-4dc3-8328-27776928e27b%2Cd417f702-d254-4e47-8a20-d1c48a0e8005%2C27ed1274-0f8e-4785-abca-92f1f7c207f3,P3,240,20,,T1
779b4675-be13-4381-80b2-7e45075b26a5,24c6a0df-4989-4266-ac8d-25504194594c,29b54ae4-f137-45e2-8ed8-db6f6dae5865,40,43.6605216141699,-70.30244824495827,POINT (-70.30244824495827 43.6605216141699),2021-08-10 20:20:46 UTC,2021-08-10 20:22:43 UTC,dkorn@ridgelineanalytics.com,ajackson@ridgelineanalytics.com,1,Muzfh18na2,"2a1e6d80-336c-479b-8989-3199fae97337,ba2ec7a2-c180-4c1d-afba-ce4f3855b3c5",",",https://web.fulcrumapp.com/photos/view?photos=2a1e6d80-336c-479b-8989-3199fae97337%2Cba2ec7a2-c180-4c1d-afba-ce4f3855b3c5,P1,240,20,,T1
0ca76c4b-f842-4672-b316-5fb4c182e7b2,d6e1595c-017f-42cb-98d7-47416b2f60ed,29b54ae4-f137-45e2-8ed8-db6f6dae5865,40,43.66031743007851,-70.3026679541409,POINT (-70.3026679541409 43.66031743007851),2021-08-10 21:10:33 UTC,2021-12-21 14:54:47 UTC,dkorn@ridgelineanalytics.com,ajackson@ridgelineanalytics.com,2,Mufzkj12nahz,"75312e04-4bf8-42cf-8fd1-dd068222adce,48c63066-3124-45dd-96fc-020f0f65df48",",",https://web.fulcrumapp.com/photos/view?photos=75312e04-4bf8-42cf-8fd1-dd068222adce%2C48c63066-3124-45dd-96fc-020f0f65df48,P2,240,20,,T1
e30ca8be-2ffe-4a35-9f95-617386963906,dcf07ac2-d289-4768-a7df-3378c37f9f88,29b54ae4-f137-45e2-8ed8-db6f6dae5865,13,43.66049778163427,-70.30242507796854,POINT (-70.30242507796854 43.66049778163427),2021-12-21 14:41:58 UTC,2021-12-21 14:53:27 UTC,cbohl@ridgelineanalytics.com,ajackson@ridgelineanalytics.com,1,MUZ-FH18NA2,1a4494b0-0128-430c-8d5d-d7750ee9ec7f,,https://web.fulcrumapp.com/photos/view?photos=1a4494b0-0128-430c-8d5d-d7750ee9ec7f,P2,240,20,,T1
59b72a3f-27d2-4125-bcaa-db8c2ac08bec,133cddd9-c8e8-4707-a0eb-8be3b789f440,381a8cf3-1bb1-4ff7-b84f-6c69bb4deab3,21,44.109262861455335,-69.51976700681632,POINT (-69.51976700681632 44.109262861455335),2021-08-11 16:45:48 UTC,2022-02-10 18:07:07 UTC,cbohl@ridgelineanalytics.com,ajackson@ridgelineanalytics.com,1,MXZ-3C30NAHZ2,cac5ac8b-3f0c-44f1-879f-d453ad4a0f05,,https://web.fulcrumapp.com/photos/view?photos=cac5ac8b-3f0c-44f1-879f-d453ad4a0f05,P3,240,20,,T1
3612d08e-a56b-44c6-8d8e-cb8333f03e94,d5cc24dd-368a-4a05-b793-e2f845aaa651,4bb9c12f-7013-4399-ac6a-57886f7a7b34,24,43.90081148881224,-69.81847346477197,POINT (-69.81847346477197 43.90081148881224),2021-08-05 19:00:25 UTC,2022-02-03 20:12:29 UTC,cbohl@ridgelineanalytics.com,ajackson@ridgelineanalytics.com,1,AOUG09LZAS1,64d7c051-eff2-4491-9ca3-9b8c46d3f2cd,,https://web.fulcrumapp.com/photos/view?photos=64d7c051-eff2-4491-9ca3-9b8c46d3f2cd,P4,240,20,,T1
5022e3f9-7b5a-407c-bd8a-25e6efe07a3f,d16a158c-710d-444d-a727-ea29f23a921b,4bb9c12f-7013-4399-ac6a-57886f7a7b34,1,44.38890036526067,-71.17745759747126,POINT (-71.17745759747126 44.38890036526067),2022-02-03 20:12:01 UTC,2022-02-03 20:12:55 UTC,ajackson@ridgelineanalytics.com,ajackson@ridgelineanalytics.com,1,AOUG09LZAS1,,,,P2,240,20,,T1
492c2afc-1266-4a6f-bba4-064b8d2e958d,f9cafb08-e032-45dd-81c2-9dfd0d08a44d,3fc0992b-1478-4295-92a2-ace908e30f14,24,43.88798472175356,-70.09469590815644,POINT (-70.09469590815644 43.88798472175356),2021-08-18 18:18:12 UTC,2021-08-18 18:21:04 UTC,cbohl@ridgelineanalytics.com,ajackson@ridgelineanalytics.com,1,AOUG12LZAH1,b0945c09-6cc7-4286-a951-558a0ef095b7,,https://web.fulcrumapp.com/photos/view?photos=b0945c09-6cc7-4286-a951-558a0ef095b7,P2,240,20,,T1
dcf96680-6879-49f3-bf3e-b0786fcb8459,d3e8ad14-64e9-4f9f-9a54-90e5d4d6b4dc,175b5f82-264c-40d9-bc99-730451b77a55,23,43.81886283742237,-70.18699794343904,POINT (-70.18699794343904 43.81886283742237),2021-08-19 13:10:46 UTC,2021-08-19 13:12:19 UTC,cbohl@ridgelineanalytics.com,ajackson@ridgelineanalytics.com,1,MXZ-3C30NAHZ2,6e653a9c-09a8-40ca-b70c-aa87a661ddb5,,https://web.fulcrumapp.com/photos/view?photos=6e653a9c-09a8-40ca-b70c-aa87a661ddb5,P3,240,20,,T1
8d359436-7292-4196-b712-e4375de3e749,1587d132-ade5-403f-9b85-ef9fd0e27a4a,c30145e9-4639-4bb1-b38d-7ec357d47180,18,43.50106105273106,-70.64946804262995,POINT (-70.64946804262995 43.50106105273106),2021-08-04 14:05:28 UTC,2021-08-04 14:19:18 UTC,ajackson@ridgelineanalytics.com,ajackson@ridgelineanalytics.com,1,AOUG15LZAH1,ad845b78-d044-429e-96a9-8ca835de08de,,https://web.fulcrumapp.com/photos/view?photos=ad845b78-d044-429e-96a9-8ca835de08de,P2,240,20,,T1
0a82397d-308d-41ac-bd1e-9bbe1323e953,10209fd2-697f-4359-b64d-faf747b9d37e,8e564b85-b9d8-4091-9a74-1fae05f58740,29,43.562983813809105,-70.27894634806039,POINT (-70.27894634806039 43.562983813809105),2021-08-04 16:03:35 UTC,2021-08-04 16:05:28 UTC,ajackson@ridgelineanalytics.com,ajackson@ridgelineanalytics.com,1,MXZ-4C36NAHZ2,9a873adf-6d69-40cd-95e4-057d80a13267,,https://web.fulcrumapp.com/photos/view?photos=9a873adf-6d69-40cd-95e4-057d80a13267,P4,240,20,,T1
d4e10e28-f77a-4312-86e7-a9d06c6446bb,7d544411-8de8-4b27-b6ae-41268ae20fbb,84d91744-ba4b-4e16-927e-b8fc7ed4e50e,26,44.237106439577026,-70.06681019649821,POINT (-70.06681019649821 44.237106439577026),2021-08-05 16:02:24 UTC,2021-09-29 20:19:42 UTC,ajackson@ridgelineanalytics.com,ajackson@ridgelineanalytics.com,1,MUZ-FH15NA,c2ee0875-3084-4be2-aa4e-7b25210d1f02,,https://web.fulcrumapp.com/photos/view?photos=c2ee0875-3084-4be2-aa4e-7b25210d1f02,P2,240,20,,T1
9b271d3d-2a09-46ff-bfce-62cb0f18375f,7be2fd50-558d-479d-afbe-2c26fa2706bf,4dccd60a-d035-4f62-b0a5-224e91d762d3,34,43.567385053009005,-70.38538242050225,POINT (-70.38538242050225 43.567385053009005),2021-08-04 17:55:35 UTC,2021-08-04 18:32:21 UTC,ajackson@ridgelineanalytics.com,ajackson@ridgelineanalytics.com,1,MXZ-3C30NAHZ2,9485eaf5-b994-4dba-a714-0189ca079e14,,https://web.fulcrumapp.com/photos/view?photos=9485eaf5-b994-4dba-a714-0189ca079e14,P3,240,20,,T1
b2defaee-424e-4a19-860d-1511b788467b,be6e552d-2c52-4fcd-bf70-c813b7fefdb8,abde9ce2-c237-49ab-b807-754c6e198765,17,44.5395350311362,-69.68892842614744,POINT (-69.68892842614744 44.5395350311362),2021-08-12 12:39:04 UTC,2021-08-12 12:46:23 UTC,tschanzlin@ridgelineanalytics.com,ajackson@ridgelineanalytics.com,1,Muz-Fh09NA,"f19f4355-ceea-45a9-9678-b3d48c7e6e4a,99d2330d-fbd9-441a-99e6-858c12460db1",",",https://web.fulcrumapp.com/photos/view?photos=f19f4355-ceea-45a9-9678-b3d48c7e6e4a%2C99d2330d-fbd9-441a-99e6-858c12460db1,P3,240,20,,T1
79ae6a34-b50a-4eda-ad4b-53bf8938b8c6,054325e4-5553-4a79-91bf-569f9b0be3d6,cd43ce36-d478-4558-b471-6be58c9f4cc8,21,43.49875111582671,-70.4208171610228,POINT (-70.4208171610228 43.49875111582671),2021-08-12 16:27:24 UTC,2022-01-27 17:06:36 UTC,tschanzlin@ridgelineanalytics.com,ajackson@ridgelineanalytics.com,1,Mxz3c24nahz2,f5eb3e0f-7954-4ab0-8b76-4a90d5fff89b,,https://web.fulcrumapp.com/photos/view?photos=f5eb3e0f-7954-4ab0-8b76-4a90d5fff89b,P3,240,20,,T1
bc8df390-4657-41bf-8760-6afa55e2d208,1ead9e21-69ec-4766-bf57-1b4aec8eff0b,cd43ce36-d478-4558-b471-6be58c9f4cc8,2,44.388944223680596,-71.1773973069871,POINT (-71.1773973069871 44.388944223680596),2022-01-27 16:09:57 UTC,2022-02-10 14:56:21 UTC,ajackson@ridgelineanalytics.com,ajackson@ridgelineanalytics.com,1,Mxz3c24nahz2,96914abd-f0f2-45a2-ae85-119b1d95d2de,,https://web.fulcrumapp.com/photos/view?photos=96914abd-f0f2-45a2-ae85-119b1d95d2de,P3,240,20,,T1
f4b22ad7-4597-4822-8e69-64d5c834223a,6b7d642a-f8a9-4018-914c-e95a1b4d6c61,39a12b38-6d1c-4528-8536-d28fcafa533e,23,43.473512869718114,-70.46112829092797,POINT (-70.46112829092797 43.473512869718114),2021-08-12 19:21:21 UTC,2021-08-12 19:22:30 UTC,tschanzlin@ridgelineanalytics.com,ajackson@ridgelineanalytics.com,1,Mxz2c20na,1c7c5ed4-063e-4a2a-a562-7ff17284be30,,https://web.fulcrumapp.com/photos/view?photos=1c7c5ed4-063e-4a2a-a562-7ff17284be30,P3,240,20,,T1
4edaf897-aab5-43ba-a4dd-bffbc19d6182,c1e6e0a6-19c4-4fbc-9f4b-8f645d67cb67,ba0ecb1a-7539-4d09-84ef-07615a5aef84,23,44.05905207635116,-70.6910013896286,POINT (-70.6910013896286 44.05905207635116),2021-08-13 16:33:10 UTC,2021-08-13 16:34:36 UTC,tschanzlin@ridgelineanalytics.com,ajackson@ridgelineanalytics.com,1,Aoug15lzah1,3aa8fa01-a295-44f2-b83e-37174de28533,,https://web.fulcrumapp.com/photos/view?photos=3aa8fa01-a295-44f2-b83e-37174de28533,P2,240,20,,T1
d77142be-2920-4717-92ac-b4e91a6a05db,58c9ba2e-fb3f-48b1-9379-8e0bc67e9f51,c064bcca-6d95-405c-a4de-777dfee41130,25,43.81004373799925,-70.18255695682757,POINT (-70.18255695682757 43.81004373799925),2021-08-19 17:26:56 UTC,2021-10-06 17:56:18 UTC,cbohl@ridgelineanalytics.com,ajackson@ridgelineanalytics.com,1,MUZ-FH18NA2,1d49bf50-2dd1-4928-95f0-f629d3be1bd4,,https://web.fulcrumapp.com/photos/view?photos=1d49bf50-2dd1-4928-95f0-f629d3be1bd4,P2,240,20,,T1
78042ce5-bb07-4e14-b415-42038514559b,58c9ba2e-fb3f-48b1-9379-8e0bc67e9f51,c064bcca-6d95-405c-a4de-777dfee41130,25,43.810033928411926,-70.18258189016895,POINT (-70.18258189016895 43.810033928411926),2021-08-19 17:27:49 UTC,2021-10-06 17:23:06 UTC,cbohl@ridgelineanalytics.com,ajackson@ridgelineanalytics.com,2,MUZ-FH06NA,7cf20bc0-deab-4f5d-86a8-12d5d96edcf9,,https://web.fulcrumapp.com/photos/view?photos=7cf20bc0-deab-4f5d-86a8-12d5d96edcf9,P4,240,20,,T1
1e47f16d-5da8-45d6-9b49-ae9441317f89,0ad0376f-bd41-44e1-9e86-d1aac27db65a,bd4beaa6-8955-487d-ba21-1fa03b79b28d,24,43.67756965337911,-70.36101469906758,POINT (-70.36101469906758 43.67756965337911),2021-08-19 21:35:51 UTC,2021-08-19 21:37:43 UTC,cbohl@ridgelineanalytics.com,ajackson@ridgelineanalytics.com,1,MXZ-3C24NAHZ2-U1,41f5e8df-78c1-4147-8c0c-9cd108c5d1d6,,https://web.fulcrumapp.com/photos/view?photos=41f5e8df-78c1-4147-8c0c-9cd108c5d1d6,P4,240,20,,T1
953c4534-2838-4da0-bb8c-1f5ba26ba556,cb2cca0b-ac99-44b1-88c1-36be3175af2a,bd4beaa6-8955-487d-ba21-1fa03b79b28d,24,43.677501043236965,-70.36101569588894,POINT (-70.36101569588894 43.677501043236965),2021-08-19 21:47:58 UTC,2021-08-19 21:48:55 UTC,cbohl@ridgelineanalytics.com,ajackson@ridgelineanalytics.com,2,MUZ-FH15NA,e469bf06-3ff6-47d4-9dea-1b8a7331d0e9,,https://web.fulcrumapp.com/photos/view?photos=e469bf06-3ff6-47d4-9dea-1b8a7331d0e9,P1,240,20,,T1
94e805ad-a18e-495a-a473-c06e45e6b3d5,ccf96966-eb38-4278-880c-233bb8323008,9b97a2bd-5025-45be-a166-d1a9ad1deb6c,25,43.81533844660654,-70.39883247778808,POINT (-70.39883247778808 43.81533844660654),2021-08-20 14:25:24 UTC,2021-08-20 14:37:04 UTC,cbohl@ridgelineanalytics.com,ajackson@ridgelineanalytics.com,2,MUZ-FH18NA2,"7f849c2f-2f9e-46fa-bef9-bf3737ff4f34,01cad8ed-9fdb-4bb1-b6c6-fc13bf089b3b",",",https://web.fulcrumapp.com/photos/view?photos=7f849c2f-2f9e-46fa-bef9-bf3737ff4f34%2C01cad8ed-9fdb-4bb1-b6c6-fc13bf089b3b,P2,240,20,,T1
f056633d-9e4e-4d67-ade9-49871e4d1e97,c5503fee-c9c6-4fa0-8ab0-ec4befd395b3,9b97a2bd-5025-45be-a166-d1a9ad1deb6c,25,43.815336084144484,-70.39862381903991,POINT (-70.39862381903991 43.815336084144484),2021-08-20 13:29:33 UTC,2021-09-02 21:16:58 UTC,cbohl@ridgelineanalytics.com,ajackson@ridgelineanalytics.com,1,MUZ-FH12NA,"6de56ad0-74d7-4479-9b1b-00075d77fcf9,dd293729-bda7-4148-aefd-1ed691f130e0",",",https://web.fulcrumapp.com/photos/view?photos=6de56ad0-74d7-4479-9b1b-00075d77fcf9%2Cdd293729-bda7-4148-aefd-1ed691f130e0,P5,240,20,,T1
eb906949-e4b7-4021-bcd4-77a33c0d9e17,792fe257-14fb-43f9-85d4-59db28651f03,0d1fa99e-e526-4886-b7dc-b1bce054315e,22,43.68484309364689,-70.41871367101257,POINT (-70.41871367101257 43.68484309364689),2021-08-20 17:13:46 UTC,2021-08-20 17:41:15 UTC,cbohl@ridgelineanalytics.com,ajackson@ridgelineanalytics.com,1,AOUG15LZAS1,af877efc-f015-4a9e-9ef9-effdc646fed2,,https://web.fulcrumapp.com/photos/view?photos=af877efc-f015-4a9e-9ef9-effdc646fed2,P2,240,20,,T1
55d43968-de82-4d0c-8b64-7a2a64987f85,147c9b7c-9674-4ca5-b266-06864b97bcc2,c15e35c2-252a-49ca-b3d0-9c26860d99e1,23,43.45298420480455,-70.49304478987887,POINT (-70.49304478987887 43.45298420480455),2021-08-20 19:51:47 UTC,2022-01-27 16:07:33 UTC,cbohl@ridgelineanalytics.com,ajackson@ridgelineanalytics.com,1,MXZ-3C24NAHZ2,aadfeed9-cefa-40e3-8031-69b871c28beb,,https://web.fulcrumapp.com/photos/view?photos=aadfeed9-cefa-40e3-8031-69b871c28beb,P3,240,20,,T1
bd442e92-07ac-4eec-9419-97024de93b0c,07371d8f-7ce7-4f4c-aaec-6bf6bf5f8391,c15e35c2-252a-49ca-b3d0-9c26860d99e1,1,44.388957959641374,-71.17742171517682,POINT (-71.17742171517682 44.388957959641374),2022-01-27 16:05:49 UTC,2022-01-27 16:08:02 UTC,ajackson@ridgelineanalytics.com,ajackson@ridgelineanalytics.com,1,MXZ-3C24NAHZ2,7983c069-2e9d-4e8e-9d0e-ac8b292a94c1,,https://web.fulcrumapp.com/photos/view?photos=7983c069-2e9d-4e8e-9d0e-ac8b292a94c1,P3,240,20,,T1
3d1b1b90-9e44-4797-8454-97be46b5addb,dfd14d9c-4a4b-4fa6-b0ab-5f4ec2618f38,6bdb3445-c8a7-487d-8fe4-752b5fd6c0d7,31,44.014247186098025,-70.36232442313974,POINT (-70.36232442313974 44.014247186098025),2021-08-05 19:34:17 UTC,2021-08-06 15:34:35 UTC,ajackson@ridgelineanalytics.com,ajackson@ridgelineanalytics.com,1,MUZ-FH18NA2,3affde9a-cd50-401c-9cd2-a5fa58ca3d3b,,https://web.fulcrumapp.com/photos/view?photos=3affde9a-cd50-401c-9cd2-a5fa58ca3d3b,P2,240,20,,T1
b96f0132-9311-406e-a865-f92463fc2805,d635e463-3291-474d-ba1f-8581e0d85bfb,11f3c972-ed2c-4d7d-8035-6eb9502bc2cf,21,44.246767526261614,-70.0493575273466,POINT (-70.0493575273466 44.246767526261614),2021-08-05 17:22:35 UTC,2021-08-26 18:35:22 UTC,ajackson@ridgelineanalytics.com,ajackson@ridgelineanalytics.com,1,RXS12RVJU,7b61bbb9-b828-4eb1-a2d3-0306b541d84f,,https://web.fulcrumapp.com/photos/view?photos=7b61bbb9-b828-4eb1-a2d3-0306b541d84f,P2,240,20,,T1
9aa65163-9502-4f48-9ce9-5de439cf278d,8e655c02-73f4-4ef5-8689-7dfbc5de13ae,d9030287-312b-4d63-bbc5-01e0eed4ea23,21,43.585044011680445,-70.34475432948283,POINT (-70.34475432948283 43.585044011680445),2021-08-04 20:08:51 UTC,2021-08-04 20:10:01 UTC,ajackson@ridgelineanalytics.com,ajackson@ridgelineanalytics.com,1,RXL12QMVJU,6dcc977a-c2e9-4bd9-b54b-8c1c696233c4,,https://web.fulcrumapp.com/photos/view?photos=6dcc977a-c2e9-4bd9-b54b-8c1c696233c4,P2,240,20,,T1
6bbaac1d-bab6-416a-8f53-724384b047fb,c9206488-7d2d-4a4b-8628-9ce8d3072f2a,96430b88-c019-41f3-9197-4516621768cc,16,43.68322394002628,-70.27831449447511,POINT (-70.27831449447511 43.68322394002628),2021-08-24 14:39:20 UTC,2021-08-24 14:41:07 UTC,cbohl@ridgelineanalytics.com,ajackson@ridgelineanalytics.com,1,2MXL18QMVJU,5209e4fe-f3ef-4c81-adf9-cc4d27d36cee,,https://web.fulcrumapp.com/photos/view?photos=5209e4fe-f3ef-4c81-adf9-cc4d27d36cee,P4,240,20,,T1
3c5ad54a-aabe-4e86-acd3-47bb68762a12,e700a307-c68c-498f-94da-0efe051579b0,b843abcc-be96-48a1-b80f-f00247ed3e90,23,43.6000526775062,-70.33074200803804,POINT (-70.33074200803804 43.6000526775062),2021-08-24 18:28:44 UTC,2022-01-27 16:14:24 UTC,cbohl@ridgelineanalytics.com,ajackson@ridgelineanalytics.com,1,RXL15QMVJU,"95f3c397-16fc-4dc7-9fb6-a38359c1cad8,b8740ece-536e-40d2-bd8a-37a70991902a",",",https://web.fulcrumapp.com/photos/view?photos=95f3c397-16fc-4dc7-9fb6-a38359c1cad8%2Cb8740ece-536e-40d2-bd8a-37a70991902a,P2,240,20,,T1
5d7ebe1f-9029-490e-83cc-2996ad40fa3d,d4163b9d-6dc4-4f5f-bdf9-669427d28016,b843abcc-be96-48a1-b80f-f00247ed3e90,1,44.38891427523774,-71.17738820536472,POINT (-71.17738820536472 44.38891427523774),2022-01-27 16:14:33 UTC,2022-01-27 16:15:13 UTC,ajackson@ridgelineanalytics.com,ajackson@ridgelineanalytics.com,1,RXL15QMVJU,e2313303-fc3b-4374-987e-65e50029bc75,,https://web.fulcrumapp.com/photos/view?photos=e2313303-fc3b-4374-987e-65e50029bc75,P2,240,20,,T1
22d53b9b-6d21-47a5-87fd-fbe2fd866a74,3a5eecb1-1fce-4e56-adb5-eaf29ee34878,9e3b8c76-b9a4-4857-9e93-6c551cf86346,18,43.761584174265785,-70.40000958170697,POINT (-70.40000958170697 43.761584174265785),2021-08-24 21:47:56 UTC,2021-08-24 21:50:39 UTC,cbohl@ridgelineanalytics.com,ajackson@ridgelineanalytics.com,1,RXS12LVJU,2bdfd9d0-48b9-433b-87c0-9d752618617c,,https://web.fulcrumapp.com/photos/view?photos=2bdfd9d0-48b9-433b-87c0-9d752618617c,P3,240,20,,T1
9408f814-249a-48a2-a2af-af2a8d96914f,3a5eecb1-1fce-4e56-adb5-eaf29ee34878,9e3b8c76-b9a4-4857-9e93-6c551cf86346,12,44.389001579908125,-71.17734141668893,POINT (-71.17734141668893 44.389001579908125),2021-09-18 01:16:08 UTC,2021-09-18 01:17:44 UTC,ajackson@ridgelineanalytics.com,ajackson@ridgelineanalytics.com,2,RXL09QMVJU,9c40d7a8-67ec-4c9c-8df1-549a3fa3c357,,https://web.fulcrumapp.com/photos/view?photos=9c40d7a8-67ec-4c9c-8df1-549a3fa3c357,P4,240,20,,T1
b83c0ecf-c8d8-43a7-afc1-18746a6c70e9,b8980190-5b7f-4920-9d6e-2b8ab766023e,7e6c46fe-027d-414e-8f76-305127e5ac1b,21,44.078468183489576,-70.17880862943638,POINT (-70.17880862943638 44.078468183489576),2021-08-25 12:23:38 UTC,2022-01-27 16:27:00 UTC,cbohl@ridgelineanalytics.com,ajackson@ridgelineanalytics.com,1,RXL15QMVJU,a3599ffd-224a-4234-8bbe-723eaf55c128,,https://web.fulcrumapp.com/photos/view?photos=a3599ffd-224a-4234-8bbe-723eaf55c128,P2,240,20,,T1
10d8688f-efcc-48ad-b7d8-72ec249c4ef3,7ebef193-158c-4ce3-bed0-145ef17ea04d,7e6c46fe-027d-414e-8f76-305127e5ac1b,1,44.38896368521923,-71.1774435756241,POINT (-71.1774435756241 44.38896368521923),2022-01-27 16:27:12 UTC,2022-01-27 16:27:39 UTC,ajackson@ridgelineanalytics.com,ajackson@ridgelineanalytics.com,1,RXL15QMVJU,ba7690d9-da42-474a-987d-3cfd1742af08,,https://web.fulcrumapp.com/photos/view?photos=ba7690d9-da42-474a-987d-3cfd1742af08,P2,240,20,,T1
47e910dd-4b6d-4288-b8a3-746e8e789b92,5ba0fa78-4e7f-4516-b692-4ab4ec2e0103,2cb66149-81ed-424c-8eec-63796007f7b4,21,44.078449573098865,-70.17882023954887,POINT (-70.17882023954887 44.078449573098865),2021-08-25 12:02:23 UTC,2021-08-25 16:04:19 UTC,cbohl@ridgelineanalytics.com,ajackson@ridgelineanalytics.com,1,AOUG15LZAS1,f5ed468a-6be9-4cfc-88d7-3dd92a3b3353,,https://web.fulcrumapp.com/photos/view?photos=f5ed468a-6be9-4cfc-88d7-3dd92a3b3353,P2,240,20,,T1
a3b2956c-4c22-4f2a-8daa-8493402a406a,489fc351-bd96-4e7c-a78d-2ea16f789249,0daadef5-554b-4a23-bd21-435044b8a16c,23,44.07847688016152,-70.17883668028044,POINT (-70.17883668028044 44.07847688016152),2021-08-25 19:24:42 UTC,2021-09-02 17:54:35 UTC,cbohl@ridgelineanalytics.com,ajackson@ridgelineanalytics.com,2,MUZ-FH12NA,db79444f-7fa5-4bc4-8ad1-af80c1a6c698,,https://web.fulcrumapp.com/photos/view?photos=db79444f-7fa5-4bc4-8ad1-af80c1a6c698,P5,240,20,,T1
38d64874-ffa0-44bd-b335-d458d3774362,7164a053-dee9-4909-acf4-7080041d04b8,0daadef5-554b-4a23-bd21-435044b8a16c,23,44.078438335219374,-70.1788100151742,POINT (-70.1788100151742 44.078438335219374),2021-08-25 20:12:25 UTC,2021-08-26 13:08:45 UTC,cbohl@ridgelineanalytics.com,ajackson@ridgelineanalytics.com,1,MUZ-FH12NA,123f1e5e-1f5f-4ec5-8599-9c39cb108769,,https://web.fulcrumapp.com/photos/view?photos=123f1e5e-1f5f-4ec5-8599-9c39cb108769,P2,240,20,,T1
c4547a9c-cd93-42f0-ace7-58532b07259b,0fd0eaa3-0a11-4667-ab98-fc5b23b92159,d7877b25-8766-409f-9245-c19811da800a,19,44.07845691009331,-70.1788111766027,POINT (-70.1788111766027 44.07845691009331),2021-08-25 20:43:10 UTC,2021-08-26 17:35:03 UTC,cbohl@ridgelineanalytics.com,ajackson@ridgelineanalytics.com,1,AOU45RLXFZ,6a0091a8-6fa4-42ae-b44c-88637e87b411,,https://web.fulcrumapp.com/photos/view?photos=6a0091a8-6fa4-42ae-b44c-88637e87b411,P4,240,20,,T1
6dbb32cd-d609-45c9-8295-fd9c2f68e974,b728635e-585a-41ae-858a-dc911f8cba4f,b6479b81-845b-413b-96d9-85afa4de9040,23,44.07847701025231,-70.17876101907041,POINT (-70.17876101907041 44.07847701025231),2021-08-25 21:09:02 UTC,2021-09-02 17:56:04 UTC,cbohl@ridgelineanalytics.com,ajackson@ridgelineanalytics.com,1,AOUG15LZAH1,af68f9f3-9f2f-4eff-b91d-8fae29e564ca,,https://web.fulcrumapp.com/photos/view?photos=af68f9f3-9f2f-4eff-b91d-8fae29e564ca,P5,240,20,,T1
fe65ff06-fc35-49ff-b4e2-0d8333abeb61,882577d6-ad1b-4c0f-be26-ea09c2054f71,858d0970-ec84-4b87-9af9-461621ab8d6f,31,44.38942351135776,-71.17726995931987,POINT (-71.17726995931987 44.38942351135776),2021-08-26 19:35:39 UTC,2021-10-26 19:22:35 UTC,ajackson@ridgelineanalytics.com,ajackson@ridgelineanalytics.com,1,AOUG15LZAS1,4ccf22c7-4f1e-4509-b76f-690606b28086,,https://web.fulcrumapp.com/photos/view?photos=4ccf22c7-4f1e-4509-b76f-690606b28086,P2,240,20,,T1
ab0ee445-8f87-40d5-8f2c-3dcfee096e21,1e63cec0-0480-4111-9963-3a11cf9763a0,5b743c7b-0b34-4e39-964a-22f4a693a0ab,23,44.389199651819325,-71.17740243679953,POINT (-71.17740243679953 44.389199651819325),2021-08-26 19:51:30 UTC,2021-10-27 17:11:04 UTC,ajackson@ridgelineanalytics.com,ajackson@ridgelineanalytics.com,1,AOUG09LZAH1,8990bff1-b058-43e3-82f4-5e6211e7ed8f,,https://web.fulcrumapp.com/photos/view?photos=8990bff1-b058-43e3-82f4-5e6211e7ed8f,P3,240,20,,T1
5132134f-0297-4b5d-957d-33c5e3271481,da3914ff-b817-4884-a19c-56c9a2aabf44,5b743c7b-0b34-4e39-964a-22f4a693a0ab,24,44.3891916471018,-71.17740059278083,POINT (-71.17740059278083 44.3891916471018),2021-08-26 19:54:32 UTC,2022-02-09 15:05:23 UTC,ajackson@ridgelineanalytics.com,ajackson@ridgelineanalytics.com,2,AOU15RLS3H,0983d2b2-6f33-421e-a3c0-e974dc4eb093,,https://web.fulcrumapp.com/photos/view?photos=0983d2b2-6f33-421e-a3c0-e974dc4eb093,P2,240,20,,T1
f3a187a7-ddcf-46b3-83a4-f3b2d919c66c,de50a662-69e9-4141-82b7-2dd668aa7df2,d26ad68d-4c96-462e-97a6-bb9f3a233164,23,44.389212224674075,-71.17739740765762,POINT (-71.17739740765762 44.389212224674075),2021-08-26 20:05:28 UTC,2022-02-08 18:53:09 UTC,ajackson@ridgelineanalytics.com,wrambur@ridgelineanalytics.com,1,AOU9RLS3,2b943329-cc31-4535-8b2e-0a22318b1f18,,https://web.fulcrumapp.com/photos/view?photos=2b943329-cc31-4535-8b2e-0a22318b1f18,P3,240,20,,T1
e9b49122-2507-423e-a634-6b6998d549d2,637901f7-de29-4cfe-99a3-b28b0b3ecb64,38863851-e747-43b0-8ded-1ca1fa2f7851,35,44.38914202623503,-71.17745842791271,POINT (-71.17745842791271 44.38914202623503),2021-08-26 20:12:11 UTC,2021-08-30 19:31:05 UTC,ajackson@ridgelineanalytics.com,ajackson@ridgelineanalytics.com,1,RXL15QMVJUA,5d0b203a-6b0e-4b58-861f-3cdad6150f2d,,https://web.fulcrumapp.com/photos/view?photos=5d0b203a-6b0e-4b58-861f-3cdad6150f2d,P3,240,20,,T1
9c87e5e2-6e57-4495-bf93-8c5abcc0782c,637901f7-de29-4cfe-99a3-b28b0b3ecb64,38863851-e747-43b0-8ded-1ca1fa2f7851,35,44.38912228685306,-71.17743043235612,POINT (-71.17743043235612 44.38912228685306),2021-08-26 20:14:29 UTC,2021-08-30 19:31:57 UTC,ajackson@ridgelineanalytics.com,ajackson@ridgelineanalytics.com,2,RXL15QMVJUA,9acd1d32-d0ed-45e1-9cc7-2f9679c2f331,,https://web.fulcrumapp.com/photos/view?photos=9acd1d32-d0ed-45e1-9cc7-2f9679c2f331,P4,240,20,,T1
ae4ffead-3f29-4822-b556-171338c80e7b,f3fb48ef-82d1-4851-8136-b99e246091d6,38863851-e747-43b0-8ded-1ca1fa2f7851,10,44.785321470038625,-68.71381906825667,POINT (-68.71381906825667 44.785321470038625),2021-10-27 14:32:52 UTC,2021-10-27 15:15:51 UTC,cbohl@ridgelineanalytics.com,ajackson@ridgelineanalytics.com,1,RXL15QMVJUA,,,,P3,240,20,,T1
662b063f-18cd-46e3-927f-3e85768c5d41,f3fb48ef-82d1-4851-8136-b99e246091d6,38863851-e747-43b0-8ded-1ca1fa2f7851,10,44.78533786439277,-68.71379117547202,POINT (-68.71379117547202 44.78533786439277),2021-10-27 14:33:22 UTC,2021-10-27 15:15:56 UTC,cbohl@ridgelineanalytics.com,ajackson@ridgelineanalytics.com,2,RXL15QMVJUA,,,,P4,240,20,,T1
95c32794-ce06-4503-88e0-e78a2fbcb699,ad0721f7-fa8e-4aa5-aed0-37c07d3b17be,4c12a5ee-19fe-485e-8968-fe7e64c44c0b,30,44.38910175119029,-71.1774332822032,POINT (-71.1774332822032 44.38910175119029),2021-08-26 20:28:47 UTC,2021-10-13 18:40:32 UTC,ajackson@ridgelineanalytics.com,ajackson@ridgelineanalytics.com,1,AOUG15LZAS1,b4aad798-555e-496a-89fb-a49c74b8686d,,https://web.fulcrumapp.com/photos/view?photos=b4aad798-555e-496a-89fb-a49c74b8686d,P2,240,20,,T1
89a39dcc-782b-4b9e-aea2-d4f3ed0f8c38,c7546704-741b-4a29-b60a-4c5d27d4d444,4c12a5ee-19fe-485e-8968-fe7e64c44c0b,12,44.81576429066706,-68.76270148471487,POINT (-68.76270148471487 44.81576429066706),2022-01-07 16:19:25 UTC,2022-02-08 15:57:12 UTC,cbohl@ridgelineanalytics.com,wrambur@ridgelineanalytics.com,1,A,6fe7f7d1-350f-454f-93e0-43646245f992,,https://web.fulcrumapp.com/photos/view?photos=6fe7f7d1-350f-454f-93e0-43646245f992,P4,240,20,,T1
577768a1-db7d-4331-bf9e-387b80465f9b,9dd5b7eb-c189-49fb-8235-6bb4f9f3b0a7,60edadd8-10e2-42fb-aa5c-6ac6df25d0fa,29,44.38912912974604,-71.17742435183274,POINT (-71.17742435183274 44.38912912974604),2021-08-26 20:36:54 UTC,2021-10-13 14:57:14 UTC,ajackson@ridgelineanalytics.com,ajackson@ridgelineanalytics.com,1,AOUG15LZAS1,2125be9d-45b2-4411-99ae-a981ce1d7c58,,https://web.fulcrumapp.com/photos/view?photos=2125be9d-45b2-4411-99ae-a981ce1d7c58,P2,240,20,,T1
47656bb7-4b42-4b60-9191-b08de5bf8883,32b61f79-9071-4736-9214-17e1e6de658a,d5a86ed6-728d-4219-877d-bf7c720cc2fe,23,44.078479701431654,-70.17882821864124,POINT (-70.17882821864124 44.078479701431654),2021-08-25 21:30:17 UTC,2021-08-26 21:57:22 UTC,cbohl@ridgelineanalytics.com,ajackson@ridgelineanalytics.com,1,MUZ-FH12NA,1b2bf1b2-a5c9-438e-8b08-dd117db58070,,https://web.fulcrumapp.com/photos/view?photos=1b2bf1b2-a5c9-438e-8b08-dd117db58070,P3,240,20,,T1
246f2a0c-b711-421e-ab37-f34d8504eb67,9b9de88e-0b0a-4e7e-9261-e41af08dfda7,d5a86ed6-728d-4219-877d-bf7c720cc2fe,23,43.69488582499235,-70.28530816805558,POINT (-70.28530816805558 43.69488582499235),2021-08-26 22:43:10 UTC,2021-09-02 18:27:36 UTC,cbohl@ridgelineanalytics.com,ajackson@ridgelineanalytics.com,2,MUZ-FH12NA,63a7f4ac-8e83-4ea2-a470-07f758000d99,,https://web.fulcrumapp.com/photos/view?photos=63a7f4ac-8e83-4ea2-a470-07f758000d99,P5,240,20,,T1
45f39038-6506-4c75-84ad-2252069dde81,8ff75c08-4163-4530-af94-05f01387b910,d5a86ed6-728d-4219-877d-bf7c720cc2fe,7,43.6947164692421,-70.28536431379322,POINT (-70.28536431379322 43.6947164692421),2021-12-21 19:32:06 UTC,2021-12-21 19:32:44 UTC,cbohl@ridgelineanalytics.com,ajackson@ridgelineanalytics.com,1,MUZ-FH12NA,62c98743-7cd0-4272-9b54-0b39300d8186,,https://web.fulcrumapp.com/photos/view?photos=62c98743-7cd0-4272-9b54-0b39300d8186,P2,240,20,,T1
382ab97f-66d7-4bf5-886b-4cfa6f369a80,86c6cd32-610d-402c-b10d-d619d3b714de,2da1ce4a-c0de-4a21-9780-532664839f97,18,44.38915246170446,-71.17730503908467,POINT (-71.17730503908467 44.38915246170446),2021-08-30 17:02:15 UTC,2021-09-02 13:26:44 UTC,ajackson@ridgelineanalytics.com,ajackson@ridgelineanalytics.com,1,3MXL24RMVJU,85cebe67-16ec-4adc-800f-10e92d67c79c,,https://web.fulcrumapp.com/photos/view?photos=85cebe67-16ec-4adc-800f-10e92d67c79c,P3,240,20,,T1
02fe4920-6e2c-44f5-b7a7-5da349bc5ead,629b5b15-d955-47c2-bb32-64d82d58bb1b,d96646ca-500c-42c4-aab2-1edb5c334516,17,44.38900393466337,-71.17733983999737,POINT (-71.17733983999737 44.38900393466337),2021-08-30 17:26:35 UTC,2022-02-10 21:42:38 UTC,ajackson@ridgelineanalytics.com,wrambur@ridgelineanalytics.com,1,AOU24RLXFZH,a881571f-50bd-4cbb-8e14-7c7d0be44b91,,https://web.fulcrumapp.com/photos/view?photos=a881571f-50bd-4cbb-8e14-7c7d0be44b91,P3,240,20,,T1
d2c86804-a2aa-4a69-81f7-230ae6f0bf4d,9f855ea9-36c1-486c-8f40-0a4e0496bca2,d96646ca-500c-42c4-aab2-1edb5c334516,15,44.38902319175839,-71.17737758777906,POINT (-71.17737758777906 44.38902319175839),2021-08-30 17:43:33 UTC,2022-02-10 20:26:18 UTC,ajackson@ridgelineanalytics.com,wrambur@ridgelineanalytics.com,2,AOUG09LZAH1,c40649d3-0acb-4a44-8cee-4723005cc90c,,https://web.fulcrumapp.com/photos/view?photos=c40649d3-0acb-4a44-8cee-4723005cc90c,P2,240,20,,T1
2238f66b-ebe3-41dd-a428-408120d6431d,4b7a5f78-a165-47fb-a3a1-6328d5672305,97994716-a5fb-4ee2-be8b-7a19d428ccf6,24,44.38899451805067,-71.17731715912191,POINT (-71.17731715912191 44.38899451805067),2021-08-30 17:51:53 UTC,2022-02-16 18:03:13 UTC,ajackson@ridgelineanalytics.com,ajackson@ridgelineanalytics.com,1,,,,,P3,240,20,,T1
608b0415-4228-482e-8094-6b5817bb3276,4b7a5f78-a165-47fb-a3a1-6328d5672305,97994716-a5fb-4ee2-be8b-7a19d428ccf6,1,44.388912823286276,-71.17742856927691,POINT (-71.17742856927691 44.388912823286276),2022-02-16 18:01:44 UTC,2022-02-16 18:03:04 UTC,ajackson@ridgelineanalytics.com,ajackson@ridgelineanalytics.com,2,,,,,P4,240,20,,T1
f74fa956-a930-41de-b612-27a2fb40a630,a9da5540-454a-465b-a397-4417d27459c4,92b09e84-9555-491b-a42a-2fd6d7a525ff,24,44.38901263407714,-71.1774055918849,POINT (-71.1774055918849 44.38901263407714),2021-08-30 20:26:55 UTC,2021-09-02 18:32:42 UTC,ajackson@ridgelineanalytics.com,ajackson@ridgelineanalytics.com,1,MUZFH15NA,"0cfa49ae-8d4d-48bf-b2a1-4c42d15dfda4,9b5a7fe6-8632-4274-b134-572ac7bcccfe",",",https://web.fulcrumapp.com/photos/view?photos=0cfa49ae-8d4d-48bf-b2a1-4c42d15dfda4%2C9b5a7fe6-8632-4274-b134-572ac7bcccfe,P1,240,20,,T1
1cc5489f-ae3d-4ded-98c7-b2fa23d9db8a,12895e08-2e16-43cd-bce5-ee16b47e112e,92b09e84-9555-491b-a42a-2fd6d7a525ff,24,44.38901044440488,-71.17732952524167,POINT (-71.17732952524167 44.38901044440488),2021-08-30 20:32:57 UTC,2021-09-02 18:34:27 UTC,ajackson@ridgelineanalytics.com,ajackson@ridgelineanalytics.com,2,MUH24WN,"638bc779-248d-42ff-aa79-fcbbe4f4b70b,65f22de9-200b-4db0-99dd-cab494fbd0f4,9304343e-ddf1-4d0e-8b71-33e6fd7ace1d",",,",https://web.fulcrumapp.com/photos/view?photos=638bc779-248d-42ff-aa79-fcbbe4f4b70b%2C65f22de9-200b-4db0-99dd-cab494fbd0f4%2C9304343e-ddf1-4d0e-8b71-33e6fd7ace1d,P2,240,20,,T1
f9aaba6b-d6c2-4937-aca2-62bd80e1c486,fc42871c-638e-4b8f-9b48-c437ffb1ae04,322203f8-277b-40a6-8fc4-06a39b41a956,12,44.82522825916577,-68.77363109582711,POINT (-68.77363109582711 44.82522825916577),2021-10-13 15:35:01 UTC,2021-10-13 15:36:10 UTC,cbohl@ridgelineanalytics.com,ajackson@ridgelineanalytics.com,1,AOUG15LZAH1,56bde573-35f5-4943-889e-ca4b3e49d711,,https://web.fulcrumapp.com/photos/view?photos=56bde573-35f5-4943-889e-ca4b3e49d711,P1,240,20,,T1
62990c35-cf15-4972-a651-36572ad9ba0b,713743b0-0e24-4774-a9fe-a20b272ac557,044c88d7-0f15-4074-ae29-507266b5fe68,15,42.43748397098105,-71.49747963349702,POINT (-71.49747963349702 42.43748397098105),2021-08-30 21:47:16 UTC,2022-02-11 19:23:21 UTC,dkorn@ridgelineanalytics.com,wrambur@ridgelineanalytics.com,1,AOUG12LzAS1,"f3c4c782-21c1-404a-a9e8-7a94ad3ec0a4,7ce52a07-d9d0-4a72-acbb-b8b994ec5154",",",https://web.fulcrumapp.com/photos/view?photos=f3c4c782-21c1-404a-a9e8-7a94ad3ec0a4%2C7ce52a07-d9d0-4a72-acbb-b8b994ec5154,P2,240,20,,T1
62320cdb-5f22-43de-9484-37cf3f5d109c,bf5e4a6d-9111-4795-bc89-11a8a6a88414,64082f19-61b3-4c25-aada-f5868f56c658,13,44.39086295577116,-71.1747671935844,POINT (-71.1747671935844 44.39086295577116),2021-09-24 14:02:27 UTC,2022-01-06 21:47:30 UTC,ajackson@ridgelineanalytics.com,ajackson@ridgelineanalytics.com,1,AOU12RLS2,ccbc816b-f6cd-4248-ac04-6958a7a0a8d2,,https://web.fulcrumapp.com/photos/view?photos=ccbc816b-f6cd-4248-ac04-6958a7a0a8d2,P3,240,20,,T1
b43ed1c4-53d0-4637-98fa-34aa70e1e624,89a4e6bf-404e-4806-96f1-e7ffb2541462,64082f19-61b3-4c25-aada-f5868f56c658,11,44.84649155640724,-68.7263410291576,POINT (-68.7263410291576 44.84649155640724),2021-10-13 20:24:32 UTC,2022-01-30 18:05:47 UTC,cbohl@ridgelineanalytics.com,ajackson@ridgelineanalytics.com,2,AOUG09LZAS1,"1681472b-a0aa-4dba-ac34-54e0d5cd49f9,e0cf8d76-7658-4f91-af23-b1531676a820",",",https://web.fulcrumapp.com/photos/view?photos=1681472b-a0aa-4dba-ac34-54e0d5cd49f9%2Ce0cf8d76-7658-4f91-af23-b1531676a820,P2,240,20,,T1
4f10fb19-5451-49ba-b62c-786d8112e07f,8008eaea-8ac6-48b7-b211-2f9734c9abb2,3faadf33-185c-4637-9cd6-5f44f524fb21,2,45.299765570322954,-68.45003360432823,POINT (-68.45003360432823 45.299765570322954),2022-02-10 22:22:56 UTC,2022-02-10 22:50:59 UTC,wrambur@ridgelineanalytics.com,wrambur@ridgelineanalytics.com,1,AOU15RLS3H,"0126006c-1c72-49c6-b1fa-ebf24000ac6e,04c4bee2-bf69-4dc3-9ee5-42f337f7a23c",",",https://web.fulcrumapp.com/photos/view?photos=0126006c-1c72-49c6-b1fa-ebf24000ac6e%2C04c4bee2-bf69-4dc3-9ee5-42f337f7a23c,P2,240,20,,T1
ae228cd0-2b8e-4a8c-9c19-bd01c81e3373,a71c5d66-40c2-43d9-a542-a75d628b43f8,d8bf856a-0b9d-4d94-9941-12fe7abccde7,19,43.925757250587466,-70.37846618426961,POINT (-70.37846618426961 43.925757250587466),2021-08-10 14:05:17 UTC,2021-09-02 18:36:41 UTC,dkorn@ridgelineanalytics.com,ajackson@ridgelineanalytics.com,1,Mxz3C24NAHZ2,"29ea06ff-1722-4d15-9c7e-f2d84a7181c5,d839ebcd-39ec-4df4-9c2d-b2485ebe89eb",",",https://web.fulcrumapp.com/photos/view?photos=29ea06ff-1722-4d15-9c7e-f2d84a7181c5%2Cd839ebcd-39ec-4df4-9c2d-b2485ebe89eb,P3,240,20,,T1
c554e313-71bf-433c-a0f0-8b04a6b9f8a8,e6320148-8e95-4851-acdb-bcbb9ea6d681,77e8428a-7740-443e-8c3b-679de7343d35,17,43.74635119899154,-70.64037598341983,POINT (-70.64037598341983 43.74635119899154),2021-08-30 23:23:17 UTC,2021-09-02 18:38:33 UTC,cbohl@ridgelineanalytics.com,ajackson@ridgelineanalytics.com,2,AOUG12LZAS1,40d96533-761c-4fb7-83e2-c057f9ea31d9,,https://web.fulcrumapp.com/photos/view?photos=40d96533-761c-4fb7-83e2-c057f9ea31d9,P2,240,20,,T1
761d8638-9bb5-4517-8100-3c88b1a95fb5,63b6a33d-0ee5-4f46-a442-e211cbde1025,77e8428a-7740-443e-8c3b-679de7343d35,17,43.746118035942274,-70.64013037612312,POINT (-70.64013037612312 43.746118035942274),2021-08-30 23:50:18 UTC,2021-09-02 21:14:04 UTC,cbohl@ridgelineanalytics.com,ajackson@ridgelineanalytics.com,1,AOU24RLXFZH,f2ffb9ad-fddd-46bb-bde6-d601229e96c9,,https://web.fulcrumapp.com/photos/view?photos=f2ffb9ad-fddd-46bb-bde6-d601229e96c9,P5,240,20,,T1
aef3767f-7dc0-42d5-ab4e-419342099fbc,9c90347a-c444-4621-bb40-19124452d3ee,5733f98a-1d7b-4d3b-ac08-84c227959fb8,10,44.56794982422827,-69.14637100495972,POINT (-69.14637100495972 44.56794982422827),2021-08-31 17:29:07 UTC,2021-08-31 17:29:44 UTC,cbohl@ridgelineanalytics.com,ajackson@ridgelineanalytics.com,2,MUZ-FH15NA,644ec4fb-2a86-4ed6-b14c-657c0db88968,,https://web.fulcrumapp.com/photos/view?photos=644ec4fb-2a86-4ed6-b14c-657c0db88968,P1,240,20,,T1
ee543444-2dfe-434e-9f15-e66b3da0e872,da339637-4ec9-4802-ab9a-4a35d6e1696b,5733f98a-1d7b-4d3b-ac08-84c227959fb8,10,44.5680890732402,-69.14638834627226,POINT (-69.14638834627226 44.5680890732402),2021-08-31 18:33:41 UTC,2021-09-02 21:13:02 UTC,cbohl@ridgelineanalytics.com,ajackson@ridgelineanalytics.com,1,MUZ-FH09NA,48c6c49b-b1a7-444a-b840-c377d050e9ca,,https://web.fulcrumapp.com/photos/view?photos=48c6c49b-b1a7-444a-b840-c377d050e9ca,P5,240,20,,T1
7cf682d3-d39a-4d9c-8d7e-399661c01cbf,b61e7985-267e-4fa5-87d3-1523defb7ee8,3dfa39bc-6c3b-4745-8d7c-6f38e48099e8,14,44.338259798459674,-69.4093162514879,POINT (-69.4093162514879 44.338259798459674),2021-08-31 13:58:28 UTC,2021-08-31 13:59:07 UTC,cbohl@ridgelineanalytics.com,ajackson@ridgelineanalytics.com,1,MUZ-FH15NA,07559c4c-abc6-40cc-a916-9385889558c0,,https://web.fulcrumapp.com/photos/view?photos=07559c4c-abc6-40cc-a916-9385889558c0,P2,240,20,,T1
4f8bf7e8-cfb4-4c6d-9d6a-a6dda7e3109f,538f9ca0-0c8e-40f4-9515-362d2b17d10e,3dfa39bc-6c3b-4745-8d7c-6f38e48099e8,14,44.33844495549136,-69.40918743102125,POINT (-69.40918743102125 44.33844495549136),2021-08-31 14:12:02 UTC,2021-09-02 21:12:06 UTC,cbohl@ridgelineanalytics.com,ajackson@ridgelineanalytics.com,2,AOU15RLS2,d11e0266-8b0d-4576-b06e-3e3645a837c3,,https://web.fulcrumapp.com/photos/view?photos=d11e0266-8b0d-4576-b06e-3e3645a837c3,P5,240,20,,T1
7a6c744b-4f21-403c-9323-511fb17e900b,3f1a897e-ca2f-4532-9b36-26440e88aef3,12b1ae8b-8d94-4ee6-a2ed-e70c65fe5762,11,44.58140824821672,-69.30634969992201,POINT (-69.30634969992201 44.58140824821672),2021-08-31 19:28:56 UTC,2021-08-31 19:29:35 UTC,cbohl@ridgelineanalytics.com,ajackson@ridgelineanalytics.com,1,AOU15RLS3,c71deede-fd15-40db-8843-a747eadf2930,,https://web.fulcrumapp.com/photos/view?photos=c71deede-fd15-40db-8843-a747eadf2930,P3,240,20,,T1
ef253f3f-5dcc-4542-af48-f15ba24e64b1,4c7ea159-9403-4cad-ab75-2b2779c096ba,12b1ae8b-8d94-4ee6-a2ed-e70c65fe5762,5,44.581235070523256,-69.30655163843898,POINT (-69.30655163843898 44.581235070523256),2021-10-21 22:06:20 UTC,2021-10-21 22:07:30 UTC,cbohl@ridgelineanalytics.com,ajackson@ridgelineanalytics.com,1,AOU15RLS3,,,,P3,240,20,,T1
f4ece9df-baf9-4ec9-a0a8-d6f781c8dcd9,5a9a6522-3017-4b81-9395-1ab316499f3f,07c87409-adf5-4c64-99db-30c1784ece49,13,43.7597167833725,-69.97892745766633,POINT (-69.97892745766633 43.7597167833725),2021-09-08 13:06:11 UTC,2021-09-08 13:07:03 UTC,cbohl@ridgelineanalytics.com,ajackson@ridgelineanalytics.com,1,NTXSPH09A112AA,f183d48d-87af-4e24-8277-c8dc235edd76,,https://web.fulcrumapp.com/photos/view?photos=f183d48d-87af-4e24-8277-c8dc235edd76,P5,240,20,,
cbcfb5cc-b7f0-4d75-bd84-ed0308e3b126,072a282b-87ab-43ce-a192-871a4c26a4e9,07c87409-adf5-4c64-99db-30c1784ece49,14,43.75974937856281,-69.97905409678839,POINT (-69.97905409678839 43.75974937856281),2021-09-08 13:27:21 UTC,2022-02-03 20:01:52 UTC,cbohl@ridgelineanalytics.com,ajackson@ridgelineanalytics.com,2,NTXSPH09A112AA,1708ab25-53a0-49ae-a8ce-f34ef35fc312,,https://web.fulcrumapp.com/photos/view?photos=1708ab25-53a0-49ae-a8ce-f34ef35fc312,P2,240,20,,T1
1cf943fb-dfab-4f6c-88d0-6409aa617ba3,4ccc409d-824e-42a7-893d-09e5e9dfaa24,07c87409-adf5-4c64-99db-30c1784ece49,1,44.38891221106648,-71.17745912989822,POINT (-71.17745912989822 44.38891221106648),2022-02-03 20:01:59 UTC,2022-02-03 20:02:22 UTC,ajackson@ridgelineanalytics.com,ajackson@ridgelineanalytics.com,2,NTXSPH09A112AA,b230dafc-ab7b-4875-bc3e-e9174fe8c5da,,https://web.fulcrumapp.com/photos/view?photos=b230dafc-ab7b-4875-bc3e-e9174fe8c5da,P2,240,20,,T1
368b3894-85e7-4379-a639-7304e2a69fcc,427b8cfb-042c-4adc-a0d6-3261fe7dc443,f7f44e29-a44e-4636-b697-028109def611,11,43.92077942580792,-69.65581829762696,POINT (-69.65581829762696 43.92077942580792),2021-09-08 16:10:06 UTC,2022-02-03 20:26:31 UTC,cbohl@ridgelineanalytics.com,ajackson@ridgelineanalytics.com,1,MUZ-FS15NA,47e62a19-c845-4142-bea9-6cd7d548acf7,,https://web.fulcrumapp.com/photos/view?photos=47e62a19-c845-4142-bea9-6cd7d548acf7,P3,240,20,,T1
00597a3d-e830-4e4a-99e7-271daa284167,9f372fd8-9969-49aa-9ed0-3d150096ef26,f7f44e29-a44e-4636-b697-028109def611,10,43.92059965096548,-69.65602139826527,POINT (-69.65602139826527 43.92059965096548),2021-09-08 16:44:29 UTC,2021-09-08 16:45:05 UTC,cbohl@ridgelineanalytics.com,ajackson@ridgelineanalytics.com,2,MUZ-FS09NA,8824e983-9b84-4ed2-9bb4-64d3519e98e4,,https://web.fulcrumapp.com/photos/view?photos=8824e983-9b84-4ed2-9bb4-64d3519e98e4,P5,240,20,,
8f6bc0e1-95bc-4ea5-8b84-47c3c695694c,577f090a-bfd6-4dbf-ad0f-c464a9845ceb,f7f44e29-a44e-4636-b697-028109def611,1,44.38890905123637,-71.17743579677415,POINT (-71.17743579677415 44.38890905123637),2022-02-03 20:25:46 UTC,2022-02-03 20:27:05 UTC,ajackson@ridgelineanalytics.com,ajackson@ridgelineanalytics.com,1,MUZ-FS15NA,,,,P2,240,20,,T1
0615fa53-8bd3-4daa-a323-a684088163fd,38e888c1-3a18-4b43-9b94-785154ed91f5,0d44cdcc-5566-4361-8bc7-e66adf652592,10,43.86679307988754,-69.50307734134948,POINT (-69.50307734134948 43.86679307988754),2021-09-08 19:24:20 UTC,2022-02-10 01:11:13 UTC,cbohl@ridgelineanalytics.com,ajackson@ridgelineanalytics.com,1,MUZ-FH12NA,e20c1980-4e10-4d4c-ab54-d75ab8fcb768,,https://web.fulcrumapp.com/photos/view?photos=e20c1980-4e10-4d4c-ab54-d75ab8fcb768,P3,240,20,,T1
446d5f60-b3f3-4d21-b472-0ff53d185f10,21530981-5c9c-48f2-bf70-be9727f47bb1,0d44cdcc-5566-4361-8bc7-e66adf652592,1,44.38896705400632,-71.1774399039067,POINT (-71.1774399039067 44.38896705400632),2022-02-10 01:09:09 UTC,2022-02-10 01:11:37 UTC,ajackson@ridgelineanalytics.com,ajackson@ridgelineanalytics.com,1,MUZ-FH12NA,ea30d059-b2ee-4e4a-9698-af84c34f1348,,https://web.fulcrumapp.com/photos/view?photos=ea30d059-b2ee-4e4a-9698-af84c34f1348,P3,240,20,,T1
6797c052-12ee-424f-8989-0fd82c4971f0,1b521caa-9fcb-48ee-84d6-fa06a21bd81b,24d1b11e-1f17-4b24-b69e-7e1576eb59e8,6,44.78451877858031,-69.71473355784119,POINT (-69.71473355784119 44.78451877858031),2021-09-30 20:19:57 UTC,2021-09-30 20:20:47 UTC,cbohl@ridgelineanalytics.com,ajackson@ridgelineanalytics.com,1,AOUG12LZAS1,a88fa31a-f5c3-4c94-a4d5-c053307d2990,,https://web.fulcrumapp.com/photos/view?photos=a88fa31a-f5c3-4c94-a4d5-c053307d2990,P2,240,20,,T1
a939ca5c-6304-47db-942e-3113d353d6ac,20f277a4-ca0a-4947-a1a2-b7fa823b1bda,75cc6ca0-de24-476a-bcd6-b4541d23120e,10,44.760048880342325,-69.63267534946532,POINT (-69.63267534946532 44.760048880342325),2021-09-30 14:49:07 UTC,2022-02-10 01:22:43 UTC,cbohl@ridgelineanalytics.com,ajackson@ridgelineanalytics.com,1,3MXL24RMVJUA,bab7dd6a-a755-45b9-99a5-0764b3b0ed26,,https://web.fulcrumapp.com/photos/view?photos=bab7dd6a-a755-45b9-99a5-0764b3b0ed26,P2,240,20,,T1
ef41c2dd-d6c3-4537-a02b-42e703f53943,0d9930b4-4877-4307-a1ff-4aefb2875350,75cc6ca0-de24-476a-bcd6-b4541d23120e,9,44.760083606170426,-69.63299425494229,POINT (-69.63299425494229 44.760083606170426),2021-09-30 15:33:19 UTC,2021-09-30 16:16:29 UTC,cbohl@ridgelineanalytics.com,ajackson@ridgelineanalytics.com,2,RXS12LVJU,ba524195-74b9-4382-92b1-8db30f86d44b,,https://web.fulcrumapp.com/photos/view?photos=ba524195-74b9-4382-92b1-8db30f86d44b,P1,240,20,,T1
02d85691-973a-46e2-962b-5d56e3c6b875,18775595-f890-4948-8909-6926aca08682,75cc6ca0-de24-476a-bcd6-b4541d23120e,9,44.76000644170765,-69.63313172773083,POINT (-69.63313172773083 44.76000644170765),2021-09-30 18:29:23 UTC,2021-09-30 18:30:16 UTC,cbohl@ridgelineanalytics.com,ajackson@ridgelineanalytics.com,3,KON18HPJ1OB,7571842a-c7ab-4a30-a778-6e5b210368ce,,https://web.fulcrumapp.com/photos/view?photos=7571842a-c7ab-4a30-a778-6e5b210368ce,P1,240,20,,T1
6d576e3c-20b5-469a-8dab-3efa8ae5a9bf,e79eb561-b5c4-45a5-9b9c-593d42cbb9e3,75cc6ca0-de24-476a-bcd6-b4541d23120e,1,44.38891589014165,-71.17742434079837,POINT (-71.17742434079837 44.38891589014165),2022-02-10 01:22:54 UTC,2022-02-10 01:29:13 UTC,ajackson@ridgelineanalytics.com,ajackson@ridgelineanalytics.com,1,3MXL24RMVJUA,23df7845-8df7-4c55-b30d-d165b86878a7,,https://web.fulcrumapp.com/photos/view?photos=23df7845-8df7-4c55-b30d-d165b86878a7,P2,240,20,,T1
3fda1fce-e892-4031-8c36-e077776dd881,e2347bd3-037f-44f4-9a87-ae79685fd9f5,e51ed48b-1a01-4bf8-81fd-4ea3b77966a5,10,44.726798930566375,-69.85536231832934,POINT (-69.85536231832934 44.726798930566375),2021-10-01 13:25:19 UTC,2021-10-08 16:26:35 UTC,cbohl@ridgelineanalytics.com,ajackson@ridgelineanalytics.com,1,RXL15QMVJU ,"f163fbf9-e6e1-4389-8470-abab9c2662e7,39db45ba-f7ad-4e95-bd49-b6f561b3460c",",",https://web.fulcrumapp.com/photos/view?photos=f163fbf9-e6e1-4389-8470-abab9c2662e7%2C39db45ba-f7ad-4e95-bd49-b6f561b3460c,P2,240,20,,T1
873c4ceb-471f-4f1b-a87c-51d78dc3c2af,a7df9677-cc63-4562-a0df-478ce24c750c,e51ed48b-1a01-4bf8-81fd-4ea3b77966a5,5,44.72009049267016,-69.84540310694821,POINT (-69.84540310694821 44.72009049267016),2022-01-14 19:17:39 UTC,2022-01-21 18:14:00 UTC,ajackson@ridgelineanalytics.com,ajackson@ridgelineanalytics.com,1,RXL15QMVJU,5cc24ff9-53a1-4d78-846d-c19289e356f8,,https://web.fulcrumapp.com/photos/view?photos=5cc24ff9-53a1-4d78-846d-c19289e356f8,P2,240,20,,T1
f7042922-947f-4d51-bea6-1971c3f76e43,a055e4cc-c648-4aa3-8a4d-5ca6cc538340,a048a564-2776-444e-bc96-ab3a7b389df9,6,44.78943004688161,-69.71368654347903,POINT (-69.71368654347903 44.78943004688161),2021-10-01 15:50:50 UTC,2021-10-01 15:51:45 UTC,cbohl@ridgelineanalytics.com,ajackson@ridgelineanalytics.com,1,AOU12RLS3,6286eabe-4fb2-4e70-9381-ac1e4485c666,,https://web.fulcrumapp.com/photos/view?photos=6286eabe-4fb2-4e70-9381-ac1e4485c666,P2,240,20,,T1
42a09397-c76a-4082-83d8-96c73b522987,ae71a5a9-9370-4edd-807d-87e0602be504,65087e7e-eb87-468e-88d3-acdb131eb3d8,5,45.03985694151779,-69.46587699605024,POINT (-69.46587699605024 45.03985694151779),2021-10-06 12:19:32 UTC,2021-10-06 12:20:12 UTC,cbohl@ridgelineanalytics.com,ajackson@ridgelineanalytics.com,1,MUZ-FH15NA,41019713-ba25-42bd-92a6-4c2f64012389,,https://web.fulcrumapp.com/photos/view?photos=41019713-ba25-42bd-92a6-4c2f64012389,P2,240,20,,T1
58ee9cf0-4204-4c72-b5a4-113661f330f6,20954336-876a-4ac5-8166-30560db09eca,af6a1a0e-bbf5-438e-bf9f-9b20852fae1f,6,44.88722273294971,-69.46314021592234,POINT (-69.46314021592234 44.88722273294971),2021-10-06 14:28:41 UTC,2022-02-10 01:17:03 UTC,cbohl@ridgelineanalytics.com,ajackson@ridgelineanalytics.com,1,MUZ-FH15NA,a42e001b-b28a-4eb7-85e9-c25c82f72a75,,https://web.fulcrumapp.com/photos/view?photos=a42e001b-b28a-4eb7-85e9-c25c82f72a75,P2,240,20,,T1
fb2d15ab-d222-4071-afcf-84da4da3d5ef,dac3a3bf-52ef-45e9-a5f8-7b515d2f6927,af6a1a0e-bbf5-438e-bf9f-9b20852fae1f,1,44.38895951029347,-71.17742649286163,POINT (-71.17742649286163 44.38895951029347),2022-02-10 01:16:11 UTC,2022-02-10 01:17:34 UTC,ajackson@ridgelineanalytics.com,ajackson@ridgelineanalytics.com,1,MUZ-FH15NA,1cf77df1-55a0-42f4-8f6d-d824e7eeb0ef,,https://web.fulcrumapp.com/photos/view?photos=1cf77df1-55a0-42f4-8f6d-d824e7eeb0ef,P2,240,20,,T1
b1b76372-8040-41ff-b45c-7bc6145e2835,0fdbe18a-9434-421d-bf45-e146b3224642,b04fbf70-36a0-4331-b43a-31686feebfc3,5,45.256361552190754,-68.97993170738043,POINT (-68.97993170738043 45.256361552190754),2021-10-06 16:44:28 UTC,2021-10-06 16:45:12 UTC,cbohl@ridgelineanalytics.com,ajackson@ridgelineanalytics.com,1,AOUG15LZAH1,3cd75eeb-e1bf-49c9-b034-ae055b06e3e8,,https://web.fulcrumapp.com/photos/view?photos=3cd75eeb-e1bf-49c9-b034-ae055b06e3e8,P2,240,20,,T1
8c72b0c4-4edc-4e83-9642-d79d6b271230,750c5154-1471-44d2-8229-09879f8b0b82,f07871de-8c8c-4e3a-aa96-0a73a8b19c7a,5,44.760552457724266,-69.5597386213986,POINT (-69.5597386213986 44.760552457724266),2021-10-07 12:26:18 UTC,2021-10-07 12:27:28 UTC,cbohl@ridgelineanalytics.com,ajackson@ridgelineanalytics.com,1,AOUG12LZAS1,86a31afd-7b54-4c96-982b-2e0e8624d98f,,https://web.fulcrumapp.com/photos/view?photos=86a31afd-7b54-4c96-982b-2e0e8624d98f,P2,240,20,,T1
c44d8bfb-b4d0-4844-a068-c6df8ff993ff,76d8aa75-2c6e-42bf-90e8-d73b2de0e28d,d6e8ff8e-0f2f-4fe3-aa75-bab4f92c8be7,5,44.77294640090267,-69.28730333708619,POINT (-69.28730333708619 44.77294640090267),2021-10-07 14:11:44 UTC,2021-10-07 14:12:22 UTC,cbohl@ridgelineanalytics.com,ajackson@ridgelineanalytics.com,1,AOUG15LZAS1,5f89dbc2-9c4d-4909-9dbe-d45fc4f50184,,https://web.fulcrumapp.com/photos/view?photos=5f89dbc2-9c4d-4909-9dbe-d45fc4f50184,P2,240,20,,T1
1961a033-a11c-44ae-824f-758fc528d973,7579baa8-69c1-449a-b442-71fb7a8885c1,cf2b5429-66d7-483d-b335-bade0ed1575e,6,44.78550105398795,-69.39396561513303,POINT (-69.39396561513303 44.78550105398795),2021-10-07 19:06:12 UTC,2022-02-10 01:20:25 UTC,cbohl@ridgelineanalytics.com,ajackson@ridgelineanalytics.com,1,AOUG12LZAH1,0e3f497c-b21d-40e6-b6ef-44c7ef402a4a,,https://web.fulcrumapp.com/photos/view?photos=0e3f497c-b21d-40e6-b6ef-44c7ef402a4a,P2,240,20,,T1
c0b11d7e-806e-484c-a042-80e2af84e82c,98fd003f-6cc3-42d5-8842-7cf263543c85,cf2b5429-66d7-483d-b335-bade0ed1575e,1,44.38896335653167,-71.17747688572393,POINT (-71.17747688572393 44.38896335653167),2022-02-10 01:20:38 UTC,2022-02-10 01:21:04 UTC,ajackson@ridgelineanalytics.com,ajackson@ridgelineanalytics.com,1,AOUG12LZAH1,08516b19-5118-4947-a853-3cf5d3ec8da5,,https://web.fulcrumapp.com/photos/view?photos=08516b19-5118-4947-a853-3cf5d3ec8da5,P2,240,20,,T1
40660829-fce5-4ae5-acd2-927e697ea4f9,701585f4-50af-4067-b980-0edf1d60adbe,47d2175f-e3d2-4967-b8f8-c3c5fd222ced,7,44.62073867825462,-69.6828742424126,POINT (-69.6828742424126 44.62073867825462),2021-10-07 15:58:43 UTC,2021-10-07 15:59:36 UTC,cbohl@ridgelineanalytics.com,ajackson@ridgelineanalytics.com,1,AJ020TXS3CH,68593c0e-b032-4181-a69c-836f6c42e89d,,https://web.fulcrumapp.com/photos/view?photos=68593c0e-b032-4181-a69c-836f6c42e89d,P2,240,20,,T1
0d974c49-bd4d-44ab-84b2-46d9dfeb82d3,2fea2c23-1034-488f-b66b-ba3fcfdd612e,94a74bf6-1519-44cc-868d-b1c60fe07ed2,13,44.60589436561894,-69.69888213746167,POINT (-69.69888213746167 44.60589436561894),2021-10-07 21:36:07 UTC,2022-01-30 17:58:10 UTC,cbohl@ridgelineanalytics.com,ajackson@ridgelineanalytics.com,1,MXZ-5C42NA2,ff002a5c-e424-43a6-9e4d-eb6b6a7cbe5e,,https://web.fulcrumapp.com/photos/view?photos=ff002a5c-e424-43a6-9e4d-eb6b6a7cbe5e,P4,240,20,,T1
147c4dac-9a6a-4c7d-91b6-e2fc905ffe6a,90b75c6a-0c99-41fe-9f55-378fee2df4fc,94a74bf6-1519-44cc-868d-b1c60fe07ed2,14,44.605876067532606,-69.69886130271301,POINT (-69.69886130271301 44.605876067532606),2021-10-07 21:38:00 UTC,2022-02-04 18:14:16 UTC,cbohl@ridgelineanalytics.com,ajackson@ridgelineanalytics.com,1,MXZ-5C42NA2,0e1b2192-96a5-4d39-8e7d-c25349a4bbea,,https://web.fulcrumapp.com/photos/view?photos=0e1b2192-96a5-4d39-8e7d-c25349a4bbea,,240,20,,T1
173b1f07-a3aa-4f66-8785-0092cb9d8a91,a344f5b6-5b93-4e83-99ed-88c5a0bfaefe,9dee9848-c229-42b1-bb56-81faf6a471c8,9,44.15324543141239,-70.93620923354378,POINT (-70.93620923354378 44.15324543141239),2021-10-06 12:41:04 UTC,2022-01-13 19:09:42 UTC,ajackson@ridgelineanalytics.com,ajackson@ridgelineanalytics.com,1,MUZ-FH09NA,"4bc65c45-2b8a-4021-806b-fd397ddb48f5,e9d5df94-c21b-4bc9-ae5a-df2f7140e2ea,bc2fec6f-cc96-425a-b452-013e905d6a45,86eb73ca-cc61-46e3-b3ae-370a651559a6,adda932a-1d92-4b85-b0de-92b7bfbbfd82,2021dfcb-a7dd-4f73-a8ac-40c66773d162,fc7cd177-4776-4263-bfdb-f3232f858694",",,,,,,",https://web.fulcrumapp.com/photos/view?photos=4bc65c45-2b8a-4021-806b-fd397ddb48f5%2Ce9d5df94-c21b-4bc9-ae5a-df2f7140e2ea%2Cbc2fec6f-cc96-425a-b452-013e905d6a45%2C86eb73ca-cc61-46e3-b3ae-370a651559a6%2Cadda932a-1d92-4b85-b0de-92b7bfbbfd82%2C2021dfcb-a7dd-4f73-a8ac-40c66773d162%2Cfc7cd177-4776-4263-bfdb-f3232f858694,P2,240,20,,T1
7c26c53e-5d81-434e-8d41-482a57d6d522,9d860c78-ecc4-4c80-ba75-8762a1f198f1,9dee9848-c229-42b1-bb56-81faf6a471c8,9,44.15304647580201,-70.93599291461477,POINT (-70.93599291461477 44.15304647580201),2021-10-06 13:43:40 UTC,2021-10-06 13:46:13 UTC,ajackson@ridgelineanalytics.com,ajackson@ridgelineanalytics.com,2,MUZ-FH15NA,accf7b69-dd58-4267-bd75-7cd6ddea6cbe,,https://web.fulcrumapp.com/photos/view?photos=accf7b69-dd58-4267-bd75-7cd6ddea6cbe,P1,240,20,,T1
58a98cc3-6cd8-4fb1-9bc7-626a5d61cff2,fedde588-8261-4df3-9fc8-5e0906f3a935,2b318714-daf3-4781-a1c3-225bbe89b5bd,8,44.194671814371326,-70.56145425892487,POINT (-70.56145425892487 44.194671814371326),2021-10-06 17:02:30 UTC,2022-01-28 21:22:43 UTC,ajackson@ridgelineanalytics.com,ajackson@ridgelineanalytics.com,1,MXZ-3C30NAHZ2,acc2bb3b-8453-4f02-ab7d-c9bc0ead71d6,,https://web.fulcrumapp.com/photos/view?photos=acc2bb3b-8453-4f02-ab7d-c9bc0ead71d6,P2,240,20,,T1
35a5560b-a7b0-45bb-bf62-e3d919e8d114,c7c2c73c-5d8e-437d-aa1c-dfb45299880d,2b318714-daf3-4781-a1c3-225bbe89b5bd,1,44.38892776966253,-71.17741294942458,POINT (-71.17741294942458 44.38892776966253),2022-01-28 21:22:53 UTC,2022-01-28 21:23:23 UTC,ajackson@ridgelineanalytics.com,ajackson@ridgelineanalytics.com,1,MXZ-3C30NAHZ2,06a22968-7230-4256-af76-be821c9a288e,,https://web.fulcrumapp.com/photos/view?photos=06a22968-7230-4256-af76-be821c9a288e,P2,240,20,,T1
2163d9f6-36ce-4d89-bdfd-4937c589caad,e4c4df37-bcc7-4a20-a377-e0f7c6e79bd7,d292722c-a894-48aa-9739-6edf4890bbe8,12,44.263478507352914,-70.59439218442297,POINT (-70.59439218442297 44.263478507352914),2021-10-06 18:44:13 UTC,2022-01-28 22:48:34 UTC,ajackson@ridgelineanalytics.com,ajackson@ridgelineanalytics.com,1,RXL15QMVJUA,ab8862c8-669a-4726-a93c-b055101ecc4d,,https://web.fulcrumapp.com/photos/view?photos=ab8862c8-669a-4726-a93c-b055101ecc4d,P2,240,20,,T1
06c81cb9-89f5-448d-a7bd-90867923cb4c,62f8f9aa-b311-4641-9a15-f0c8e63699ff,d292722c-a894-48aa-9739-6edf4890bbe8,9,44.263561329039725,-70.59439083394922,POINT (-70.59439083394922 44.263561329039725),2021-10-06 19:00:38 UTC,2021-10-06 19:19:25 UTC,ajackson@ridgelineanalytics.com,ajackson@ridgelineanalytics.com,2,MUZ-FS18NA,7e83902a-cdb9-4726-bbe8-465d3094c8d1,,https://web.fulcrumapp.com/photos/view?photos=7e83902a-cdb9-4726-bbe8-465d3094c8d1,P1,240,20,,T1
a28e07ec-c591-4c46-a8f0-aa05dee4d050,140b0de9-7892-4a14-af19-dea526fd8c26,d292722c-a894-48aa-9739-6edf4890bbe8,2,44.38893147126567,-71.17746183775768,POINT (-71.17746183775768 44.38893147126567),2022-01-28 21:25:37 UTC,2022-01-28 22:16:04 UTC,ajackson@ridgelineanalytics.com,ajackson@ridgelineanalytics.com,1,RXL15QMVJUA,d43b8b18-79c2-40fb-9c21-b190794c31a1,,https://web.fulcrumapp.com/photos/view?photos=d43b8b18-79c2-40fb-9c21-b190794c31a1,P2,240,20,,T1
9df84556-ee65-40be-81d8-c4c2d2f5a41e,fe940ee6-c216-4356-9958-948bf1a43910,9fba4d13-79a3-4a98-a75b-e1909ebe4006,11,44.26190896944356,-70.49180577887584,POINT (-70.49180577887584 44.26190896944356),2021-10-07 12:47:55 UTC,2022-01-28 21:15:24 UTC,ajackson@ridgelineanalytics.com,ajackson@ridgelineanalytics.com,1,4MXS36RMVJUA,0d973c99-41fa-47da-ba3e-731b002ddcfc,,https://web.fulcrumapp.com/photos/view?photos=0d973c99-41fa-47da-ba3e-731b002ddcfc,P2,240,20,,T1
40f0edd2-a75e-4d6d-9a23-58d251865584,0a2cc72d-93f7-47bc-aaaf-71c02e527169,9fba4d13-79a3-4a98-a75b-e1909ebe4006,11,44.26189996910031,-70.49184361845616,POINT (-70.49184361845616 44.26189996910031),2021-10-07 12:56:28 UTC,2022-01-30 17:57:32 UTC,ajackson@ridgelineanalytics.com,ajackson@ridgelineanalytics.com,1,4MXS36RMVJUA,21e94c5c-0e00-4e9f-abbe-7317c6809ff5,,https://web.fulcrumapp.com/photos/view?photos=21e94c5c-0e00-4e9f-abbe-7317c6809ff5,,240,20,,T1
ff70baf6-051d-42c3-9f05-994b953acc2f,72630553-eb61-4089-bbff-8a5d5de58fea,9fba4d13-79a3-4a98-a75b-e1909ebe4006,2,44.38895272343699,-71.17742542280915,POINT (-71.17742542280915 44.38895272343699),2022-01-28 21:15:30 UTC,2022-01-30 16:44:35 UTC,ajackson@ridgelineanalytics.com,ajackson@ridgelineanalytics.com,1,4MXS36RMVJUA,ea940ec1-dce1-41fb-9541-8de9e567c6eb,,https://web.fulcrumapp.com/photos/view?photos=ea940ec1-dce1-41fb-9541-8de9e567c6eb,P2,240,20,,T1
e42e0e24-1bdb-4efb-8c0d-f1b2a04c84ad,5208898e-02a7-4033-8291-edf30a7bb4e1,d8fc3a0d-81d3-4913-96e8-b3062e62c9a6,10,44.551781049956276,-70.55955803437926,POINT (-70.55955803437926 44.551781049956276),2021-10-07 16:06:43 UTC,2021-10-07 16:07:48 UTC,ajackson@ridgelineanalytics.com,ajackson@ridgelineanalytics.com,1,AOUG15LZAH1,f744de08-b6e5-4c68-ae61-abef5ad565eb,,https://web.fulcrumapp.com/photos/view?photos=f744de08-b6e5-4c68-ae61-abef5ad565eb,P2,240,20,,T1
e8d78d8f-9eba-47c3-86f3-0d4324f1b205,6940c379-1972-41f9-9a81-c98c6f3f829d,17291386-5cae-4c4a-8c16-798a55c58bf3,10,44.537703853636565,-70.45385926420295,POINT (-70.45385926420295 44.537703853636565),2021-10-07 17:17:23 UTC,2021-10-07 19:40:45 UTC,ajackson@ridgelineanalytics.com,ajackson@ridgelineanalytics.com,1,AOUG12LZAS1,"f55fa4b9-b561-4f9d-83b8-097fd6af3421,38fa7812-2cde-4603-95e1-3039f0d6ff3c",",",https://web.fulcrumapp.com/photos/view?photos=f55fa4b9-b561-4f9d-83b8-097fd6af3421%2C38fa7812-2cde-4603-95e1-3039f0d6ff3c,P4,240,20,,T1
230eb9de-f2af-44ea-9ce6-bb525d470a03,6940c379-1972-41f9-9a81-c98c6f3f829d,17291386-5cae-4c4a-8c16-798a55c58bf3,10,44.537691978125956,-70.45374355757315,POINT (-70.45374355757315 44.537691978125956),2021-10-07 18:00:31 UTC,2021-10-07 19:27:29 UTC,ajackson@ridgelineanalytics.com,ajackson@ridgelineanalytics.com,2,AOUG12LZAS1,"cd3440a0-92f8-441c-83c5-6e17dbfbe67e,3be5ac14-ef9f-450e-9429-f0aa865c6c50",",",https://web.fulcrumapp.com/photos/view?photos=cd3440a0-92f8-441c-83c5-6e17dbfbe67e%2C3be5ac14-ef9f-450e-9429-f0aa865c6c50,P2,240,20,,T1
8e64fa6b-8e46-4dbb-9ce7-d00e321d4187,1589f54a-033b-4f20-abe9-545c41c3cdd9,35b4d915-d2ee-4720-9a76-0b98053d53a3,10,44.36217635832838,-70.67881084485334,POINT (-70.67881084485334 44.36217635832838),2021-10-08 12:15:00 UTC,2021-10-08 13:10:41 UTC,ajackson@ridgelineanalytics.com,ajackson@ridgelineanalytics.com,1,MXZ-3C30NAHZ2,f8b8398c-70b7-4089-a4dc-737a750f69fc,,https://web.fulcrumapp.com/photos/view?photos=f8b8398c-70b7-4089-a4dc-737a750f69fc,P2,240,20,,T1
6a613d62-dad4-4bc2-959f-dcbea5cd22cc,aad6ce89-a6e8-4b8e-9a4d-0f9d82c9b2e6,a1d28ad7-7c9f-4a1e-946f-5ef04e3b27c6,15,44.39680643227889,-70.69910336006521,POINT (-70.69910336006521 44.39680643227889),2021-10-08 14:15:46 UTC,2022-01-21 17:52:27 UTC,ajackson@ridgelineanalytics.com,ajackson@ridgelineanalytics.com,1,MUZ-FH15NA,5ba6e661-7162-465b-a30d-a47dd9c293af,,https://web.fulcrumapp.com/photos/view?photos=5ba6e661-7162-465b-a30d-a47dd9c293af,P2,240,20,,T1
54253c96-aa63-449b-8229-c0336d4b352c,87fa5ebb-ad33-40db-87c0-cae7a6998245,a1d28ad7-7c9f-4a1e-946f-5ef04e3b27c6,7,44.388917098881215,-71.1774168472958,POINT (-71.1774168472958 44.388917098881215),2021-12-15 19:17:21 UTC,2022-01-21 17:52:43 UTC,ajackson@ridgelineanalytics.com,ajackson@ridgelineanalytics.com,1,MUZ-FH15NA,,,,P2,240,20,,T1
72ae54d9-081e-47ef-8f36-fa57b0b31c90,978c3af2-82da-4322-a608-8c19cfc41f58,77394b24-fcb4-4836-8b8d-5a0c9277e8a8,10,44.42298991144139,-70.84121251485388,POINT (-70.84121251485388 44.42298991144139),2021-10-08 15:53:11 UTC,2021-10-08 17:33:57 UTC,ajackson@ridgelineanalytics.com,ajackson@ridgelineanalytics.com,1,MXZ-2C20NA2,226872a6-59d5-4ffb-9441-a6d8c3c6ac15,,https://web.fulcrumapp.com/photos/view?photos=226872a6-59d5-4ffb-9441-a6d8c3c6ac15,P2,240,20,,T1
fab875a1-9c8a-4dbf-8c9d-8b39005d32dc,74024251-58f4-44ae-94f4-c23539a41c93,6945a458-d36c-43a3-b4e7-cfb50b117367,7,43.23610564682845,-70.80654680134526,POINT (-70.80654680134526 43.23610564682845),2021-10-13 15:04:01 UTC,2021-10-13 15:04:43 UTC,cbohl@ridgelineanalytics.com,ajackson@ridgelineanalytics.com,1,AOUG15LZAS1,fb41ee9c-ba3b-4cb2-95c1-464685872a2d,,https://web.fulcrumapp.com/photos/view?photos=fb41ee9c-ba3b-4cb2-95c1-464685872a2d,P2,240,20,,T1
54d37891-6234-4773-a737-c9b40c6d29c7,75543af5-a586-47d5-aa39-f0b33717a26f,c747c7ca-e4b2-4bd0-8802-f5a6589e8df8,9,43.84482002142752,-70.25302531736386,POINT (-70.25302531736386 43.84482002142752),2021-10-13 18:38:05 UTC,2021-10-13 18:38:39 UTC,cbohl@ridgelineanalytics.com,ajackson@ridgelineanalytics.com,1,AOUG09LZAS1,4aef145d-ce4d-44ba-95c6-c38c5b15104b,,https://web.fulcrumapp.com/photos/view?photos=4aef145d-ce4d-44ba-95c6-c38c5b15104b,P2,240,20,,T1
6e375094-60e0-4853-a714-47e7a5c68b90,ddc3a197-16f2-47aa-9210-f704b4ca4f13,c747c7ca-e4b2-4bd0-8802-f5a6589e8df8,9,43.84485215546859,-70.25305744901144,POINT (-70.25305744901144 43.84485215546859),2021-10-13 18:39:18 UTC,2021-10-13 18:39:57 UTC,cbohl@ridgelineanalytics.com,ajackson@ridgelineanalytics.com,2,AOUG09LZAS1,3277eb51-732a-477d-9756-a475a19730f9,,https://web.fulcrumapp.com/photos/view?photos=3277eb51-732a-477d-9756-a475a19730f9,P5,240,20,,
8e7f691d-d8dd-4285-a184-4630e2909de8,0566b9a1-5cd7-469c-ace3-2a716a3a6743,c747c7ca-e4b2-4bd0-8802-f5a6589e8df8,9,43.84491516562106,-70.25323431567895,POINT (-70.25323431567895 43.84491516562106),2021-10-13 19:10:31 UTC,2021-10-13 19:11:06 UTC,cbohl@ridgelineanalytics.com,ajackson@ridgelineanalytics.com,3,AOUG09LZAS1 ,e85b571e-fdcd-49c1-85c7-397cf652fea6,,https://web.fulcrumapp.com/photos/view?photos=e85b571e-fdcd-49c1-85c7-397cf652fea6,P5,240,20,,
8a63de0c-b079-41c8-b9a2-136ed041c7f0,ec6bb90f-03f1-491c-a3d8-ede56562f0a0,c747c7ca-e4b2-4bd0-8802-f5a6589e8df8,9,43.84495741507311,-70.25325713352363,POINT (-70.25325713352363 43.84495741507311),2021-10-13 19:46:28 UTC,2021-10-13 19:46:56 UTC,cbohl@ridgelineanalytics.com,ajackson@ridgelineanalytics.com,4,AOUG09LZAS1 ,45f4ab19-9b97-487c-aca5-2a23b773c7be,,https://web.fulcrumapp.com/photos/view?photos=45f4ab19-9b97-487c-aca5-2a23b773c7be,P5,240,20,,T1
7791ea12-55cb-419c-938a-4790c03f7de2,cd6b1edf-b1d0-4cca-9557-e979ed8054ab,e1089ba5-d3f0-4890-9412-7126e6927238,7,44.7124783237719,-68.71674853694994,POINT (-68.71674853694994 44.7124783237719),2021-10-14 12:18:32 UTC,2021-10-14 12:19:26 UTC,cbohl@ridgelineanalytics.com,ajackson@ridgelineanalytics.com,2,AOU15RLFF,fb99b030-9227-4165-b11b-7c52bf247763,,https://web.fulcrumapp.com/photos/view?photos=fb99b030-9227-4165-b11b-7c52bf247763,P2,240,20,,T1
8caef41c-9dcd-463f-ada8-e957f1ff9c6a,09957e0b-6113-4bc0-b246-f5b855cc920b,e1089ba5-d3f0-4890-9412-7126e6927238,7,44.712576148340425,-68.71725003900312,POINT (-68.71725003900312 44.712576148340425),2021-10-14 12:33:29 UTC,2021-10-14 12:34:14 UTC,cbohl@ridgelineanalytics.com,ajackson@ridgelineanalytics.com,1,AOUG15LZAS1,92acf153-c7d7-463a-bb1e-4175331945a8,,https://web.fulcrumapp.com/photos/view?photos=92acf153-c7d7-463a-bb1e-4175331945a8,P5,240,20,,T1
89b6e6a8-5047-4d9a-8fb1-d338fc91bec9,8c64565c-670a-48de-b545-e33ad8b09d5d,260498a0-2abe-4bd0-82a0-5786ea28cb40,6,44.70870286018657,-68.91315372936292,POINT (-68.91315372936292 44.70870286018657),2021-10-14 19:51:35 UTC,2022-02-09 20:29:21 UTC,cbohl@ridgelineanalytics.com,wrambur@ridgelineanalytics.com,1,AOUG15LZAS1,08b926ef-ce80-4bd0-af8a-b52c13b52c82,,https://web.fulcrumapp.com/photos/view?photos=08b926ef-ce80-4bd0-af8a-b52c13b52c82,P3,240,20,,T1
e336543e-3136-4bd6-ae36-b84d9a52f5d4,859c3f4d-9b3d-4cdf-a81e-19a545221de4,b03a8cff-1f5a-4062-b94f-2c991c77c170,5,44.75107518623024,-68.651512633458,POINT (-68.651512633458 44.75107518623024),2021-10-15 12:09:17 UTC,2021-10-15 12:09:52 UTC,cbohl@ridgelineanalytics.com,ajackson@ridgelineanalytics.com,1,AOUG15LZAS1,6a60b5f6-98ef-43f0-a4a5-d1e7925519d2,,https://web.fulcrumapp.com/photos/view?photos=6a60b5f6-98ef-43f0-a4a5-d1e7925519d2,P2,240,20,,T1
fcc52a21-0f43-4e9d-8303-69ef436f7923,742bf6f3-811a-49ba-8a86-3a00fd10415c,8b405ded-7380-423a-9f61-24f184a2ea67,12,44.28644627298612,-69.80339043682974,POINT (-69.80339043682974 44.28644627298612),2021-10-15 14:55:12 UTC,2021-10-15 14:56:05 UTC,cbohl@ridgelineanalytics.com,ajackson@ridgelineanalytics.com,1,RXL15QMVJU ,"40556ede-089d-4296-b4b4-7d0a3a6c83f7,a1730295-2cbc-40fa-8d31-de30c10cc6d1",",",https://web.fulcrumapp.com/photos/view?photos=40556ede-089d-4296-b4b4-7d0a3a6c83f7%2Ca1730295-2cbc-40fa-8d31-de30c10cc6d1,P2,240,20,,T1
95a7b1b3-9869-45eb-930a-dcdf9123685f,673255de-ccae-492d-807a-4600d78bdc8d,809f5ece-2214-430a-a522-372ecc550c8f,16,44.16748383400178,-70.92942486139509,POINT (-70.92942486139509 44.16748383400178),2021-10-13 13:44:00 UTC,2021-10-19 19:02:06 UTC,ajackson@ridgelineanalytics.com,ajackson@ridgelineanalytics.com,1,MUZ-FH18NA2,5c8abc33-decf-48c7-beac-7a186935ff87,,https://web.fulcrumapp.com/photos/view?photos=5c8abc33-decf-48c7-beac-7a186935ff87,P2,240,20,,T1
c2efc0c7-b551-4704-9a83-a32dd8be0a45,a750994c-52fe-4946-ac7f-7b5356f2936b,809f5ece-2214-430a-a522-372ecc550c8f,16,44.167754448955435,-70.9291914093156,POINT (-70.9291914093156 44.167754448955435),2021-10-13 14:28:22 UTC,2021-10-19 19:03:00 UTC,ajackson@ridgelineanalytics.com,ajackson@ridgelineanalytics.com,2,MUZ-FH18NA2,b3dac6a8-cc18-4ae8-b702-212a50183958,,https://web.fulcrumapp.com/photos/view?photos=b3dac6a8-cc18-4ae8-b702-212a50183958,P5,240,20,,T1
ccfbb41a-d4f8-4a73-b064-4cb45ccd0a96,12418e0d-30ae-41b9-bc8b-9f7032848854,4b3ff4a9-ed2e-4853-8454-f443b0ac21c7,11,44.49006469615663,-70.32718405973849,POINT (-70.32718405973849 44.49006469615663),2021-10-13 17:36:59 UTC,2022-01-21 15:43:39 UTC,ajackson@ridgelineanalytics.com,ajackson@ridgelineanalytics.com,1,MUZ-FH15NA,76054f88-39d9-4085-8aa9-7bd37bee74d8,,https://web.fulcrumapp.com/photos/view?photos=76054f88-39d9-4085-8aa9-7bd37bee74d8,P2,240,20,,T1
e45d65a3-f801-482d-8b77-f6212fcdc202,dac6b2af-74e6-47c9-a6ce-9e51d47ca1d2,4b3ff4a9-ed2e-4853-8454-f443b0ac21c7,4,44.38896002887893,-71.17747154827359,POINT (-71.17747154827359 44.38896002887893),2022-01-21 15:42:48 UTC,2022-01-21 15:44:03 UTC,ajackson@ridgelineanalytics.com,ajackson@ridgelineanalytics.com,1,MUZ-FH15NA,055fb01e-b876-44a9-bf97-9fea0d2ed2fc,,https://web.fulcrumapp.com/photos/view?photos=055fb01e-b876-44a9-bf97-9fea0d2ed2fc,P2,240,20,,T1
2db539ae-7b75-4624-8301-2f5bf94deb65,37a71534-a52a-47ec-a753-10316aad8ed2,9be0eb9f-8fad-4b5d-b741-fe99712b1e9e,10,44.59305296293607,-70.25386917975301,POINT (-70.25386917975301 44.59305296293607),2021-10-14 13:04:48 UTC,2021-10-14 13:05:30 UTC,ajackson@ridgelineanalytics.com,ajackson@ridgelineanalytics.com,1,MUZ-FH15NA,64a8878a-52ac-4a4c-b7c0-38f3e5779b02,,https://web.fulcrumapp.com/photos/view?photos=64a8878a-52ac-4a4c-b7c0-38f3e5779b02,P2,240,20,,T1
2a443369-a197-467b-9794-d51f83eaf5e5,7ad36a09-8985-4768-bbe8-a4fb14b000f8,fd0381c5-a826-4a8b-a2d5-d9992fc02a05,16,44.706300585572585,-70.13789095922385,POINT (-70.13789095922385 44.706300585572585),2021-10-14 14:52:00 UTC,2021-12-07 13:30:32 UTC,ajackson@ridgelineanalytics.com,ajackson@ridgelineanalytics.com,1,4MXL36TVJU,41ec2a1e-9704-4ed7-b14e-ab7c586dd7a4,,https://web.fulcrumapp.com/photos/view?photos=41ec2a1e-9704-4ed7-b14e-ab7c586dd7a4,P2,240,20,,T1
41dc1590-a681-4d6e-960e-64fdcff694e8,5f4ab4c6-74cd-48d9-86a1-6f7f1bf8a9fd,fd0381c5-a826-4a8b-a2d5-d9992fc02a05,11,44.38895280559021,-71.17740720955584,POINT (-71.17740720955584 44.38895280559021),2021-12-15 18:37:37 UTC,2022-01-21 18:01:29 UTC,ajackson@ridgelineanalytics.com,ajackson@ridgelineanalytics.com,1,4MXL36TVJU,,,,P2,240,20,,T1
6243819e-280b-43c3-b3ab-5ab034b4c1ee,43ed76b2-5105-444e-ad80-7bc836215469,3c26a062-9289-4917-9740-c87bd10a4ffc,12,44.603551804131634,-70.10578819308917,POINT (-70.10578819308917 44.603551804131634),2021-10-14 17:54:39 UTC,2022-01-21 18:17:33 UTC,ajackson@ridgelineanalytics.com,ajackson@ridgelineanalytics.com,1,AOUG15LZAS1,2f15288c-7c36-41a7-8730-0791a62937ef,,https://web.fulcrumapp.com/photos/view?photos=2f15288c-7c36-41a7-8730-0791a62937ef,P2,240,20,,T1
550be090-d88e-4a8e-98dd-c0db0019749d,02f72477-fa86-44a6-9e36-2f7cb7b9eb5c,3c26a062-9289-4917-9740-c87bd10a4ffc,7,44.60353042990063,-70.10576265763142,POINT (-70.10576265763142 44.60353042990063),2021-12-14 18:49:07 UTC,2022-01-21 18:17:45 UTC,cbohl@ridgelineanalytics.com,ajackson@ridgelineanalytics.com,1,AOUG15LZAS1,a2810ef1-185c-4cb5-bded-96046522c5db,,https://web.fulcrumapp.com/photos/view?photos=a2810ef1-185c-4cb5-bded-96046522c5db,P2,240,20,,T1
ad362e4a-d5cb-41f0-9fc1-2836c5e3dae4,b8f0d466-d87a-4f76-bd25-a167091211dc,0183700e-ddfc-410e-be09-34803d0c079b,14,44.645153530249715,-70.14009734418653,POINT (-70.14009734418653 44.645153530249715),2021-10-15 13:31:30 UTC,2022-01-14 23:20:58 UTC,ajackson@ridgelineanalytics.com,ajackson@ridgelineanalytics.com,1,MUZ-FH18NAH2,8f404365-452f-4982-aff5-f1e4d76e2963,,https://web.fulcrumapp.com/photos/view?photos=8f404365-452f-4982-aff5-f1e4d76e2963,P2,240,20,,T1
7d70eee9-ae81-40d5-b4f5-9981a9d2def9,fa647ac3-94a8-482c-a1fd-bfcfdc38bb37,0183700e-ddfc-410e-be09-34803d0c079b,4,44.38896222283399,-71.17749024833127,POINT (-71.17749024833127 44.38896222283399),2022-01-14 23:19:54 UTC,2022-01-14 23:23:17 UTC,ajackson@ridgelineanalytics.com,ajackson@ridgelineanalytics.com,1,MUZ-FH18NAH2,cece4655-ccc4-4a04-8706-06dea58e0317,,https://web.fulcrumapp.com/photos/view?photos=cece4655-ccc4-4a04-8706-06dea58e0317,P2,240,20,,T1
f7f51dd9-4193-452e-a2f6-b833e8bbcfb3,c5ebe37d-76fa-403a-bb42-88533b56a1cc,bad362f4-30af-4e16-8024-62a36516123b,17,44.418170861941455,-70.32971668063693,POINT (-70.32971668063693 44.418170861941455),2021-10-15 15:26:38 UTC,2021-10-15 15:52:33 UTC,ajackson@ridgelineanalytics.com,ajackson@ridgelineanalytics.com,1,2MXL18QMVJUA,8783b266-9df5-4d93-b065-8c790c7586c6,,https://web.fulcrumapp.com/photos/view?photos=8783b266-9df5-4d93-b065-8c790c7586c6,P2,240,20,,T1
c559dc21-1cbc-458b-a862-41221086d6ca,44bf2674-f4e7-47f3-ab76-ac6050dc78df,bad362f4-30af-4e16-8024-62a36516123b,5,44.388937953744225,-71.17746400663577,POINT (-71.17746400663577 44.388937953744225),2022-01-14 01:36:53 UTC,2022-01-14 01:38:41 UTC,ajackson@ridgelineanalytics.com,ajackson@ridgelineanalytics.com,1,2MXL18QMVJUA,2f8c6df7-60b4-4e15-ae31-8deeaba8304c,,https://web.fulcrumapp.com/photos/view?photos=2f8c6df7-60b4-4e15-ae31-8deeaba8304c,P2,240,20,,T1
30915614-e8c7-4a40-b25b-b0146d6a0c5f,b529856f-ced4-4ed8-b4d9-0bdc6f4a1615,f7d10a19-6d54-4ed6-86da-197dcaed69dd,11,43.14251347850378,-70.63933051291838,POINT (-70.63933051291838 43.14251347850378),2021-10-13 12:28:39 UTC,2021-10-13 12:44:03 UTC,cbohl@ridgelineanalytics.com,ajackson@ridgelineanalytics.com,1,MXZ-2C20NAHZ2,81582057-6ae8-4a45-bfdb-79dad4c9f02e,,https://web.fulcrumapp.com/photos/view?photos=81582057-6ae8-4a45-bfdb-79dad4c9f02e,P2,240,20,,T1
6cec25d2-bc28-40ad-81bb-f0b48263f5f2,323cb831-3e0c-4c64-94fd-5400181772b4,f7d10a19-6d54-4ed6-86da-197dcaed69dd,11,43.14249992430011,-70.63929326309771,POINT (-70.63929326309771 43.14249992430011),2021-10-13 12:44:45 UTC,2021-10-13 12:45:26 UTC,cbohl@ridgelineanalytics.com,ajackson@ridgelineanalytics.com,2,MUZ-FH12NA,652717f0-8fb5-4e41-9c73-497433ad98c8,,https://web.fulcrumapp.com/photos/view?photos=652717f0-8fb5-4e41-9c73-497433ad98c8,P5,240,20,,T1
c5cdf48a-a1fb-48fe-b4a7-ac5c7bb47298,6beffab5-ea00-40e9-aacf-e1a6aecc760b,e07b6720-dc45-4e41-98c0-f3f7d7dcebce,5,44.37575698011799,-68.28454102067997,POINT (-68.28454102067997 44.37575698011799),2021-10-21 12:53:27 UTC,2021-10-21 12:53:52 UTC,cbohl@ridgelineanalytics.com,ajackson@ridgelineanalytics.com,1,MUZ-FH15NA,ab41cff7-8922-489e-bdcf-bf16168576b4,,https://web.fulcrumapp.com/photos/view?photos=ab41cff7-8922-489e-bdcf-bf16168576b4,P2,240,20,,T1
98bcb2e3-6c29-4ac0-b8dd-1e474f95b65c,f37168f4-ee39-4e03-aa2e-92884ef9e6d6,f5790181-9952-47b9-88eb-3357a32acac0,8,44.477935429849005,-68.04966440943738,POINT (-68.04966440943738 44.477935429849005),2021-10-21 15:42:52 UTC,2021-10-21 15:43:34 UTC,cbohl@ridgelineanalytics.com,ajackson@ridgelineanalytics.com,1,AOU12RLS3,08cccf5f-3d40-4d1d-9ed9-4efeaea9acc6,,https://web.fulcrumapp.com/photos/view?photos=08cccf5f-3d40-4d1d-9ed9-4efeaea9acc6,P2,240,20,,T1
293a58f3-53d5-4f5c-9a9c-81ed41611042,afc75734-ba04-4b12-a2fd-b9936f418b3d,f5790181-9952-47b9-88eb-3357a32acac0,7,44.477908678610895,-68.04983909637053,POINT (-68.04983909637053 44.477908678610895),2021-10-21 17:04:10 UTC,2021-11-03 12:58:40 UTC,cbohl@ridgelineanalytics.com,ajackson@ridgelineanalytics.com,2,NAXSPH15A112AA,8cfcaac1-b069-49ae-9b29-3ff095699621,,https://web.fulcrumapp.com/photos/view?photos=8cfcaac1-b069-49ae-9b29-3ff095699621,P5,240,20,,T1
d9b8dcff-8bd1-4fc0-82e5-30d5af78bb71,3ef7b194-13d0-44ec-afad-70830cdae5c6,6a33424f-5778-421f-b1eb-b0e2db0de4b9,7,44.31588087051635,-69.08693056814661,POINT (-69.08693056814661 44.31588087051635),2021-10-28 13:02:57 UTC,2021-10-28 13:03:35 UTC,cbohl@ridgelineanalytics.com,ajackson@ridgelineanalytics.com,1,AOUG15LZAH1,ab6edf83-4337-4f8d-8262-a911442b7723,,https://web.fulcrumapp.com/photos/view?photos=ab6edf83-4337-4f8d-8262-a911442b7723,P2,240,20,,T1
bc9e2927-79b4-4cb4-9bfb-2b986ed15ab8,e7c89c47-e349-4c56-992f-7d1fd276f9eb,8a420e75-f777-4199-a052-c150064e7264,6,44.28838215050412,-69.11107778175503,POINT (-69.11107778175503 44.28838215050412),2021-10-28 14:44:51 UTC,2022-02-23 13:10:12 UTC,cbohl@ridgelineanalytics.com,ajackson@ridgelineanalytics.com,1,MUZ-FH12NA,26658168-4d19-47fa-94ca-da20d0ded465,,https://web.fulcrumapp.com/photos/view?photos=26658168-4d19-47fa-94ca-da20d0ded465,P2,240,50,,T1
e3ef7ba1-afab-45f2-b051-67ebbb5ab013,b66f9bc4-cd2e-4c5d-a2a1-6df1358a740f,9d7d805e-0fd6-454d-bbcb-8f66d3819965,7,44.2010907601553,-69.07006961447644,POINT (-69.07006961447644 44.2010907601553),2021-10-28 17:46:28 UTC,2021-10-28 17:47:36 UTC,cbohl@ridgelineanalytics.com,ajackson@ridgelineanalytics.com,3,MUZ-FH09NA,b38e954f-0298-4334-a9d3-ae9932041752,,https://web.fulcrumapp.com/photos/view?photos=b38e954f-0298-4334-a9d3-ae9932041752,P5,240,20,,T1
fa8c4209-82d3-4db8-b38f-f10eceb12699,761b72d7-c0bf-47ac-bd39-0c192befb085,9d7d805e-0fd6-454d-bbcb-8f66d3819965,7,44.2011393742094,-69.07010286602075,POINT (-69.07010286602075 44.2011393742094),2021-10-28 17:49:36 UTC,2021-10-28 17:50:47 UTC,cbohl@ridgelineanalytics.com,ajackson@ridgelineanalytics.com,1,MUZ-FH15NA,06c02a86-f325-4f5f-8c5a-85adbdfaf9e9,,https://web.fulcrumapp.com/photos/view?photos=06c02a86-f325-4f5f-8c5a-85adbdfaf9e9,P5,240,20,,T1
c3087491-dcd3-4aca-a4c9-662a830a3af2,5dd1adbc-1efc-449a-a48f-dc647b635bff,9d7d805e-0fd6-454d-bbcb-8f66d3819965,7,44.20109011718082,-69.07010724657742,POINT (-69.07010724657742 44.20109011718082),2021-10-28 18:15:28 UTC,2021-10-28 18:23:37 UTC,cbohl@ridgelineanalytics.com,ajackson@ridgelineanalytics.com,2,MUZ-FH09NA,9f78f509-df6b-47aa-b3e5-cf2f98b3949b,,https://web.fulcrumapp.com/photos/view?photos=9f78f509-df6b-47aa-b3e5-cf2f98b3949b,P1,240,20,,T1
8f3bd2a4-4bba-4969-8764-988be9cc9100,0fd707ff-c527-4207-8bf7-23a8fa8ed0c9,9d7d805e-0fd6-454d-bbcb-8f66d3819965,7,44.20117102838861,-69.07016117073188,POINT (-69.07016117073188 44.20117102838861),2021-10-28 18:40:40 UTC,2021-10-28 18:41:39 UTC,cbohl@ridgelineanalytics.com,ajackson@ridgelineanalytics.com,4,MUZ-FH09NA,a9ee38d3-0422-4933-a6ba-373b7de32a63,,https://web.fulcrumapp.com/photos/view?photos=a9ee38d3-0422-4933-a6ba-373b7de32a63,P2,240,20,,T1
6a703332-67f1-4b37-ab30-ff7ce9de8964,0fd707ff-c527-4207-8bf7-23a8fa8ed0c9,9d7d805e-0fd6-454d-bbcb-8f66d3819965,7,44.20111305550155,-69.07002308412368,POINT (-69.07002308412368 44.20111305550155),2021-10-28 20:04:16 UTC,2021-10-28 20:05:25 UTC,cbohl@ridgelineanalytics.com,ajackson@ridgelineanalytics.com,4,MUZ-FH09NA,cbb69409-1a27-4f06-92b7-6196fb6ffb05,,https://web.fulcrumapp.com/photos/view?photos=cbb69409-1a27-4f06-92b7-6196fb6ffb05,P4,240,20,,T1
6f4550e3-5334-4b8a-b5ab-5f18c40ea338,4056d637-55ae-4145-807f-b5326cebfa35,142afb16-ef12-4191-b828-35d5fc70ce2b,9,46.78886390277614,-68.04717185698763,POINT (-68.04717185698763 46.78886390277614),2021-11-02 12:58:41 UTC,2021-11-02 18:06:45 UTC,cbohl@ridgelineanalytics.com,ajackson@ridgelineanalytics.com,1,RXL12QMVJU,8f22f435-66e0-4499-8f36-0a3854c7644d,,https://web.fulcrumapp.com/photos/view?photos=8f22f435-66e0-4499-8f36-0a3854c7644d,P2,240,20,,T1
9eb2db3a-7b81-49ce-970f-1bb643067d81,a81fa01b-e97c-48ba-bb9f-4e3c14b62b04,23c7d032-d49b-46ad-a984-b9cac6b6c8c3,9,46.66309175388123,-67.86681331527222,POINT (-67.86681331527222 46.66309175388123),2021-11-02 17:53:03 UTC,2021-11-02 17:54:47 UTC,cbohl@ridgelineanalytics.com,ajackson@ridgelineanalytics.com,1,APU24RLXFZH,feb5e520-9fad-4303-b549-d55d1ea071d7,,https://web.fulcrumapp.com/photos/view?photos=feb5e520-9fad-4303-b549-d55d1ea071d7,P2,240,20,,T1
1e823ea8-4dc2-4d06-add8-5878644e31f0,777fbb58-bf93-48d9-aa57-103f50243ef0,084e2859-7e9c-4d82-8e5c-fef4caa404a8,9,46.885287076346934,-68.15843758079616,POINT (-68.15843758079616 46.885287076346934),2021-11-02 20:40:22 UTC,2021-11-02 20:41:09 UTC,cbohl@ridgelineanalytics.com,ajackson@ridgelineanalytics.com,1,AOUG15LZAH1,ac73077f-c60b-4226-a6b9-3b64a3bac74a,,https://web.fulcrumapp.com/photos/view?photos=ac73077f-c60b-4226-a6b9-3b64a3bac74a,P2,240,20,,T1
e9c3fac6-d086-4bf4-9009-694d6fb3ad9d,3ffed302-42f6-4291-b2a8-a86ada909ba3,ec45515d-43d9-47d0-8e7e-836e2f91b750,11,47.26196074535691,-68.58949841783202,POINT (-68.58949841783202 47.26196074535691),2021-11-03 14:48:03 UTC,2022-01-30 18:10:09 UTC,cbohl@ridgelineanalytics.com,ajackson@ridgelineanalytics.com,1,AOURLS3H,611aaa74-116c-4480-8b7d-eac87991526b,,https://web.fulcrumapp.com/photos/view?photos=611aaa74-116c-4480-8b7d-eac87991526b,P2,240,20,,T1
e2a10e23-76a2-4e0d-b81f-761cc357dd27,75176db0-0422-4a0e-9bbf-45a3a2efb7de,1fa6c6fd-1622-4f57-b950-759210fee5d2,10,47.293745866360055,-68.35779199644831,POINT (-68.35779199644831 47.293745866360055),2021-11-03 17:46:21 UTC,2021-11-03 17:47:17 UTC,cbohl@ridgelineanalytics.com,ajackson@ridgelineanalytics.com,1,RXS12LVJU,3f46a200-ffd0-4808-a27e-2078b8c2928b,,https://web.fulcrumapp.com/photos/view?photos=3f46a200-ffd0-4808-a27e-2078b8c2928b,P2,240,20,,T1
d31cf86d-ced6-449b-b34f-4928e71cecef,be59fe67-85bc-49c0-90e7-dacb0277ca06,a1a656ee-0504-4e67-b066-378cc861611e,11,47.238629941448515,-68.69786046103775,POINT (-68.69786046103775 47.238629941448515),2021-11-03 20:11:57 UTC,2021-11-03 20:13:03 UTC,cbohl@ridgelineanalytics.com,ajackson@ridgelineanalytics.com,1,AOU36RLXFZH,1289388d-4423-4660-b37c-c0dd8793ba84,,https://web.fulcrumapp.com/photos/view?photos=1289388d-4423-4660-b37c-c0dd8793ba84,P2,240,20,,T1
bbc00316-155e-4d3b-a860-8da8d5f70d50,cf0983c1-b9e5-4a9b-893d-b2974231fb37,081dcfd7-3950-4455-84d4-ba1a8395b500,8,46.86866768264428,-67.9457836118229,POINT (-67.9457836118229 46.86866768264428),2021-11-04 13:46:14 UTC,2021-11-04 13:46:56 UTC,cbohl@ridgelineanalytics.com,ajackson@ridgelineanalytics.com,1,AOU24RLXFZH,7cac1ac3-9fa8-45bc-91f0-9e57682e3d9d,,https://web.fulcrumapp.com/photos/view?photos=7cac1ac3-9fa8-45bc-91f0-9e57682e3d9d,P2,240,20,,T1
93c56ccd-9be9-467e-9e29-528e3e36904d,91e46ae3-565d-4a97-a9da-8150eab89a4a,081dcfd7-3950-4455-84d4-ba1a8395b500,9,46.868792289125324,-67.94573843379837,POINT (-67.94573843379837 46.868792289125324),2021-11-04 14:32:47 UTC,2022-01-30 18:04:44 UTC,cbohl@ridgelineanalytics.com,ajackson@ridgelineanalytics.com,2,AOU18RLXFZH,63139a8d-eaaf-47b2-8f4f-948a3dd4546f,,https://web.fulcrumapp.com/photos/view?photos=63139a8d-eaaf-47b2-8f4f-948a3dd4546f,P5,240,20,,T1
940b2f85-0235-4f47-aa7f-5f04c2147781,be6cb183-5611-4903-bccf-18fb6e43d8b2,f7dbcd9f-8daa-441d-b3f5-337ff41c10e4,9,46.76150242187938,-67.81825913311052,POINT (-67.81825913311052 46.76150242187938),2021-11-04 16:47:46 UTC,2021-11-04 18:07:51 UTC,cbohl@ridgelineanalytics.com,ajackson@ridgelineanalytics.com,1,1U12EH2VHE1,9f4afb6e-f786-4162-a66c-414c0fd6d465,,https://web.fulcrumapp.com/photos/view?photos=9f4afb6e-f786-4162-a66c-414c0fd6d465,P2,240,20,,T1
0e570171-f85e-4833-9037-465b1a6e5779,47d87852-d3ab-4d46-9462-d3d02056e7a7,39916456-c042-407e-bea7-0167ea9d1585,9,46.6469809791236,-67.91361730811036,POINT (-67.91361730811036 46.6469809791236),2021-11-04 18:38:55 UTC,2021-11-04 18:41:36 UTC,cbohl@ridgelineanalytics.com,ajackson@ridgelineanalytics.com,1,AOU15RLS3H,da83d70b-9d01-442a-9f7b-cee2efd04073,,https://web.fulcrumapp.com/photos/view?photos=da83d70b-9d01-442a-9f7b-cee2efd04073,P2,240,50,,T1
20ad6ee9-4575-4117-8288-cd1f93e229c0,649ac235-7a70-4c40-8ae6-bd0b4662330c,c8b53823-0c28-494d-8ada-d2ada210c1f3,9,44.11087321494474,-70.19111908545071,POINT (-70.19111908545071 44.11087321494474),2021-11-16 18:06:48 UTC,2021-11-16 18:07:16 UTC,cbohl@ridgelineanalytics.com,ajackson@ridgelineanalytics.com,1,MUZ-FH09NA,c137a439-d8e9-4460-a4a1-c588d822c6c4,,https://web.fulcrumapp.com/photos/view?photos=c137a439-d8e9-4460-a4a1-c588d822c6c4,P2,240,20,,T1
b824f3e8-ec8d-4ffb-b54a-22d6792133e7,fbffa977-7a16-45cc-8004-65f5e4bff05f,908446a7-0dee-467c-93fe-1b0196020625,4,44.776232936100335,-67.39909941184025,POINT (-67.39909941184025 44.776232936100335),2021-11-18 14:16:29 UTC,2022-02-03 20:18:36 UTC,cbohl@ridgelineanalytics.com,ajackson@ridgelineanalytics.com,1,NAXSPH12A112AA,3ad01500-86f4-4f69-b152-c466e1dd8e2c,,https://web.fulcrumapp.com/photos/view?photos=3ad01500-86f4-4f69-b152-c466e1dd8e2c,P2,240,50,,T1
a3b0436e-83e8-4d57-ab48-560b338d92c3,6fa8a776-50f1-423a-aff8-b19b14fab36b,908446a7-0dee-467c-93fe-1b0196020625,1,44.38895391241676,-71.1773515578251,POINT (-71.1773515578251 44.38895391241676),2022-02-03 20:17:59 UTC,2022-02-03 20:18:52 UTC,ajackson@ridgelineanalytics.com,ajackson@ridgelineanalytics.com,1,NAXSPH12A112AA,6df1d6d2-1836-4681-868a-4fd8acd9b683,,https://web.fulcrumapp.com/photos/view?photos=6df1d6d2-1836-4681-868a-4fd8acd9b683,P2,240,50,,T1
4162bc30-c5cb-475f-8b3d-4947ccaf1361,c6bd3ced-1806-444b-988f-58662f12476a,c9b3b4c7-41de-4391-bde9-f0cf0f5b956e,7,45.15920925005152,-67.41058892664027,POINT (-67.41058892664027 45.15920925005152),2021-11-18 16:20:23 UTC,2021-11-18 16:21:01 UTC,cbohl@ridgelineanalytics.com,ajackson@ridgelineanalytics.com,1,NAXSPH15A112AA,ce8d7bf1-ecdf-44b4-ad14-34eb44dbe9d9,,https://web.fulcrumapp.com/photos/view?photos=ce8d7bf1-ecdf-44b4-ad14-34eb44dbe9d9,P2,240,20,,T1
62281e73-14d1-4b6e-9e2d-45747c0d7bca,b4954d38-7c34-4d02-9525-c25b04d774d6,60bd6699-f908-479d-82fb-2e808b803a3e,7,45.10702382174869,-67.40226131252776,POINT (-67.40226131252776 45.10702382174869),2021-11-18 18:12:16 UTC,2021-11-18 18:13:18 UTC,cbohl@ridgelineanalytics.com,ajackson@ridgelineanalytics.com,1,AOU24RLXFZH,960eb137-4744-4c84-bd11-32a184b5b406,,https://web.fulcrumapp.com/photos/view?photos=960eb137-4744-4c84-bd11-32a184b5b406,P2,240,50,,T1
b2d86b0b-c3da-497d-8870-ba804c799993,1375462d-9fc2-4144-a50b-9f501639bf05,19806f6b-a46b-4cd8-8dd8-659d8ad40760,7,44.9365526204151,-67.22625893737575,POINT (-67.22625893737575 44.9365526204151),2021-11-18 20:49:14 UTC,2021-11-18 20:49:42 UTC,cbohl@ridgelineanalytics.com,ajackson@ridgelineanalytics.com,1,MUZ-FH12NA,fcbe4960-1f1a-4bd5-85d4-cbf57e86bdae,,https://web.fulcrumapp.com/photos/view?photos=fcbe4960-1f1a-4bd5-85d4-cbf57e86bdae,P2,240,20,,T1
